<svg version="1.1" id="Calque_1"
	xmlns="http://www.w3.org/2000/svg"
	xmlns:xlink="http://www.w3.org/1999/xlink" x="0px" y="0px" viewBox="0 0 1438.8 899.8" style="enable-background:new 0 0 1438.8 899.8;" xml:space="preserve">
	<style type="text/css">	.st0{fill:transparent;stroke:white;}	.st1{}</style>
	<g class="countryGroup" id="india">
		<path id="path5460_1_" class="st0" d="M996.8,506.9c-0.4,0.6-0.7,0.4-0.1,1.3C996.8,507.8,996.8,507.4,996.8,506.9"></path>
		<path id="path5466_1_" class="st0" d="M1004,563.1c0,0.4,0,0.9,0.1,1.3C1004,564,1004,563.6,1004,563.1"></path>
		<path id="path5450_1_" class="st0" d="M989.3,528.5c-0.3-0.6-0.6-1.2-0.9-1.8c-1.2,0.9-2,2.8-1.8,4.2		C987.2,534.6,990.4,530.8,989.3,528.5"></path>
		<path id="path5452_1_" class="st0" d="M992.9,495.9c-2.7,2.1-0.6,8.5-0.6,11.1c-3.2-0.6-4.6,10-0.4,9.6c-1.8-1.3,0.2-1.5,0.4-2.9		c0.1-1.8-0.8-3.4,0-5.2c0.6-1.4,1.8-2.5,1.7-4.1c-0.3-2.4,0.7-0.8,1.3-3s-1.7-4.5-1.1-6.2c0.7-1.7,4.1-5.1,0.9-5.9		c1.5-1,1.4-2.7,0.5-3.9C992.1,488,993.9,492.5,992.9,495.9"></path>
		<path id="path5454_1_" class="st0" d="M991.8,494.8c-0.2,0-0.4,0-0.6,0c0.1,0.5,0.3,1,0.5,1.4C991.8,495.8,991.8,495.3,991.8,494.8		"></path>
		<path id="path5456_1_" class="st0" d="M992.6,552.3c-0.6,0.3-0.9,0.7-1,1.4C993.1,554.2,993.4,553.7,992.6,552.3"></path>
		<path id="path5458_1_" class="st0" d="M994.8,509.6c0.3,0.5,0.7,0.7,1.2,0.8C995.6,510.1,995.2,509.9,994.8,509.6"></path>
		<path id="path5462_1_" class="st0" d="M1001,571.4C997.3,572.7,1004.2,574.2,1001,571.4"></path>
		<path id="path5464_1_" class="st0" d="M1002.9,568.3c-1.8,0.1-0.7,2.2,0,2.7C1002.6,570.1,1002.6,569.2,1002.9,568.3"></path>
		<path id="path5468_1_" class="st0" d="M1005.2,580.6c-1.1,0.4-1.4,1.6-0.9,2.6C1005.4,582.7,1005.9,581.7,1005.2,580.6"></path>
		<path id="path5470_1_" class="st0" d="M1007.5,584.1c-4.7-2.4-1.2,5-0.3,6.6C1008.8,587.5,1007.4,586.9,1007.5,584.1"></path>
		<path id="path5490_1_" class="st0" d="M656.9,327.7c0.1-3,3.6-3.1,5.8-3.1c2.6,0,1.8-4,1.8-5.4c1.7,0.9,5.6,1,7.5,0.5		c3.6-1,5.9,3.4,9.5,1.8c0.8-0.4,6.4-5.9,7.5-3.7c1.8,3.6,4.3,2.1,7.6-0.1c-2.9-0.6,0.1-4.3-0.7-6.1c-1.5-3.2-3.2-6.2-5-9.2		c-1-1.7,0.9-5.4-2.6-4.4c-2.9,0.8-5.9-2.8-5.3-5.5c0.4-1.9,1.5-6.1-0.1-7.6c-2.6-2.4-7.9-0.6-8.7-5c-0.5-3.3,3.1-6.5,5.2-8.9		c1.6-1.7,2.6-3.7,3.9-5.6c0.9-1.3,2.9-4.3,4.8-3.8c2.5,0.6,1.6,4.9,4.5,5.2c1.6,0.1,3.4-1,4.9-1.6c1.9-0.7,3.6-0.7,5.5-0.9		c4.4-0.6,4.1-3.9,6.9-6.4c3.4-2.9,2.3-6.8,7-9.2c4.3-2.2,6.4-4.9,8.3-9.1c1.5-3.1,1.4-7.2,5.6-8.5c1.4-0.4,3.1-0.7,4.1-2		c1.4-1.9-1-2.3-0.8-3.2c0.2-1.1,4.1-5.1,5-6.1c1.7-1.9,5.1-3,6.5-5.1c-2.9-0.1-1.6-2.6-1.3-4.5c0.4-2.3-1.4-4-1-5.9		c0.8-3.4,7.8-4.1,10.2-6.3c4.2-3.8-5.5-4.1-7.1-4.7c-1.6-0.6-0.4-3.1-2-4c-1.1-0.6-2.6-0.6-3.8-1.2c0.8-1.4,0.4-2.1-0.7-2.8		c-1.2-0.7-4.6-2.8-3.2-4.4c1.3-1.5,2.3-3.2,0.6-4.4c-1-0.8-2.6-2.4-0.7-3.7c0.8-0.5,5.2-3,1.9-3.3c-0.5,0-5.6-0.1-3.8-1.8		c2.3-2.2-0.2-2-1.5-3.1c-1.5-1.3,2.4-4.8,3.7-5.5c3.5-1.8,6.3-0.4,9.3,0.3c3.4,0.8,6.7,1.6,10.1,2.4c2.9,0.7,5.1-1.1,8-2		c2.5-0.8,5-0.7,7.5-1.4c0.8-0.2,5.9-4.2,5.8-4.7c-0.5-1.4,4.4-3.5,5.8-4.4c1.1-0.7,2.4-1.5,3.6-1.9c1.1-0.3,1.3,0.5,2.2,0.2		c2.9-0.8,1.2,2.5,2.1,4.1c1.4,2.3,1,5.5,2.7,7.6c1.9,2.2,7.1,1.5,8.8,4.9c0.5,1,1.9,2,0.3,3.1c-3.1,2-2.4,2.3-2,5.3		c0.4,2.7,0.5,5.3,2.4,7.3c1.4,1.5,4.5,1.7,5.6,3.1c0.5,0.7,0,1.9,0.2,2.8c0.3,1,1,1.6,1.5,2.5c1.7,2.7-0.9,3.3-3,4.8		c-1.9,1.3-4.9,4.1-5.8,0.6c-0.7-2.6-2.7-3-5.8-1c0.8,1.1,0.9,2.3,1,3.6c0.1,1.5,1.5,2.2,2.3,3.3c1.7,2.3,0.5,4.9,2.1,6.9		c0.9,1.2-2,6,1.3,5.6c1.5-0.2,1.2-1.5,2.4-1.8c1.8-0.5,2,1.2,2.4,2.2c0.6,1.4,3.2,4.3,4.8,4.6c1.9,0.4,3.5-0.8,4.8,1		c0.8,1.1,2.5,0.7,3.4,1.6c0.6,0.6,0.5,1.7,0.5,2.5c0,1.4,1.7,1.4,2.8,1.9c3,1.4,6.3,2,8.2,4.8c-3.8,0.2-5.7,5.3-8.7,7		c-0.3,0.2-0.4,2.7-0.8,3.3c-1.5,2.1-0.2,3-0.9,5c-0.7,1.8-4.3,3.8-2.5,5.9c1.1,1.3,5.4,4.9,5.9,2.3c2,1.3,4.4,3.3,6.7,4.2		c2.7,1,3.6,3.3,6,4.9c0.7,0.5,4.4,3.8,5.6,3.3c2.8-1,5,1.1,7,2.2c0.9,0.5,4.1,0.5,4.5,1.1c1.4,2.1,1.5,2.7,4.6,3.3		c1.6,0.3,3.4,2,5.3,0.8c2.5-1.6,3.5-0.3,5.8,0.7c-0.8-4,8.9,0.1,9.5,0.3c2.7,0.8,0.2,4.5,2.7,5.1c2.2,0.5,5.4,1.6,6.4,3.5		c0.9,1.5,3.6-0.7,4.9-0.8c3.3-0.3,1,4.5,5.5,2.8c1.3-0.5,6.7,1.4,7.8,2.1c2.9,1.8,3.9,0,6.9-0.9c0,2,3.1,4,4.9,2.5		c0.7-0.6,5.3,0,6.4,0c2.2,0,2.7-0.1,3.3-2.4c1.2-3.9-0.4-5.5-1.3-8.8c-0.5-1.8,0.2-4.2,0.8-6.1c0.7-2.4,0.5-4.2,0.8-6.5		c2.5-0.2,5.7-2.2,8.1-1.5c4.6,1.4-0.8,7.2,0.8,9.6c0.3,0.4,1.9,1.5,1.2,2.2c-1.1,1.2-1.9,1-1.3,2.7c1.4,3.7,4.3,3.6,7.9,4.1		c2.4,0.3,3.6,2.5,6.1,2.2c1.1-0.1,2.7-0.1,3.7-0.7c1.1-0.6,3.4-2.9,4.5-2c2.9,2.3,7.2,1.5,11.1,1.4c1.2,0,3.4-1.5,3.9-0.7		c0.8,1.2,4.4,0,5.9-0.2c3.8-0.4,0.2-3.6,1-5.2c2.7-5.1-3.4-3-5.1-5.4c-1-1.3-0.9-4,1.6-3.4c2,0.5,2.9-0.5,4.9-0.9		c3-0.6,7.9,0.8,7.7-3.9c-0.1-2,6.3-4,7.1-6.7c1.3-4.3,6.6-2.2,9.7-4.6c2.5-2,4.2-4.3,6.9-6c1-0.7,2-1.4,3.1-1.9		c0.9-0.5,4.3,2.4,5,2.8c-0.8-1-0.4-1,1.1-0.1c1.2,0.5,2.6,1.4,4.1,1.4c1.5-0.1,1.7-1.8,2.4-2.8c1.4-1.7,5-2.7,6.9-3.4		c0.4-0.1,3.6,3.2,4,3.6c-2.9,1.1-2.8,1.5-2.5,3.4c0.2,1.4,3.7-1,4.5-1.2c-1,1.9,2.2,3.1,1.3,4.6c-1.5,2.3-2.6,3.1-3.6,5.3		c-0.7,1.6,3,0.2,3.7,0.1c2.6-0.7,3.9,1.8,6.6,1c2.3-0.6,3.5,2.2,3.1,4c-0.1,0.7,0.7,1.2,0.5,1.7c-0.5,1.2-2.8,2.6-3.9,3.4		c-5.5,4.4,0.8,6.1,0.7,10.2c-3.2,1.2-3.3-2.8-5.6-3.4c-2.2-0.6-8.2,1.3-10.1,3.2c-1.4,1.4-2.7,2.6-4.3,3.8		c-0.7,0.8-1.5,1.1-2.4,0.9c-1,0.7-0.3,1.1-1.7,1.9c-1.5,0.8-2.7-0.1-3.5,1.9c-0.6,1.5-0.7,3.2-0.5,4.6c0.1,1.1,0.9,1.9,1.1,2.9		c0.2,1.4-1.8,2.2-1.6,3.7c0.6,3.6-6.5,6-5.5,9.1c0.4,1.1,1.5,1.5,1.8,2.7c0.4,1.9-1.2,4.2-2.3,5.9c-2.7,4.1-5.3,8.7-5.9,13.3		c-1.2-1-4.5-2-6.1-2.4c-0.8,0.1-1.7,0.2-2.5,0.3c-1-0.2-1.2-1.1-2.5-0.9c0.8,3.6,1.2,6.9,0.8,10.7c-0.1,1.6-0.7,6.8-3.4,4.6		c0,3.5-0.7,6.1,0.3,9.4c0.3,1.2,1,5.1-1.6,3.6c-2.1,5.3-1.2,2.1-4.7,0.8c0.1,1-0.5,2.1-1.4,2.7c-0.8-2.7-0.6-5.8-0.8-8.6		c-0.2-3.4-2-6.4-2.5-9.8c-0.4-2.6-1-5.2-1.2-7.9c-0.1-2.3-3.3,1.2-4.6-0.1c0.3,1.5,0.7,2.7-0.9,3.9c-1.7,1.3-1,2.9-0.9,4.5		c0.1,1.5-2,3.4-3.4,2.3c-1.3-1.1-0.6-3.2-2.3-4.1c0,0.9-0.1,1.7-0.5,2.6c-0.8-2.6-1.6-5.3-2.3-7.9c-0.7-2.7,3.1-5.4,2.7-7.8		c1.3,0.2,3.7,0.6,3.8-1.5c0.7,1.4,2.3-0.7,3.4,0.4c0.9-3.4,6.4-6.8,4.8-10.8c0.8,0.1,4.3-0.1,2.9-1.7c-1.6-1.9-5-3-7.6-2.9		c-2.4,0-4.8,0.5-7.1,0.1c-3-0.5-5.8,0.4-8.9,0c-3.8-0.5-13.8,0.6-12.4-5.2c0.6-2.4,0.6-10.6-3.5-10.2c0.5,1.1,0,2.1-0.6,3.2		c-1.7-1-4.1-1.3-5.2-3c-0.9-1.5-1.1-4.3-3.6-3.9c0.7,0.7,1.2,1.6,1.5,2.7c-1.3-0.5-2.9-0.5-4.1-1.2c-0.8-0.4-1-1.7-1.7-2.3		c-0.9-0.8-2.1-1.4-3.1-2.2c-1.8,2.5,1.7,1.3,2,3.5c-4.4,1.5-7.9,7.3-3.1,9.3c1.9,0.8,2.3,2.9,3.9,4c1.2,0.8,3.7-0.6,3.7,1.1		c-0.1,2.5,3.7,1.6,1.6,4.2c-1.1-0.6-3-0.4-4.2-0.3c-1.7,0.2-2.1,0.3-2.5,1.8c-0.4,1.6-2.4,4.3-3.5,1.9c-0.5,2.7-3,4.8-0.6,6.9		c1.8,1.6,4.1,2.6,6.6,2.8c5.1,0.4-4.8,12.2,1.1,12.6c1.7,0.1,0.4,2.2,0.6,3.6c0.1,0.5,1.5,0.7,1.8,0.8c1.4,0.4-0.3,2.4-0.3,3.2		c0,1.7,1.3,2.7,1.1,4.4c-0.2,2.3-0.4,3.5,0.5,5.5c0.9,2.1,1.8,4.9,0.4,7.1c-0.5-0.3-1-0.6-1.5-0.9c0.3,0.9,2.9,4.2,1.7,5.1		c-1.3,0.9-2.6-0.7-2.5-1.8c-0.4,1.4-1.7,2.6-2.3,0.8c-0.7-1.9,0.8-4.4,1-6.4c-1.3,0.6-0.1,1.8-1.7,3c0.5-1.4-0.2-2.7,0.7-4		c-2.7,1.9-1.3,7.8-2,10.4c-0.3-1.7,0.7-4.4-0.8-5.7c0,0.2-0.2,4.8-0.9,4.3c-0.2-0.3-0.4-0.7-0.5-1c-1.2-2.1-0.6,3.1-1.4-0.8		c0.5,0.9,0.4,1.9-0.2,2.8c-1.6-1.6-1.1-5-1-7.2c0.1-3.3-2.7-2.7-3.4-5.4c0.1,2.7,4.7,2.2,2.1,5.7c-2.9,3.9-5.3,5.5-10,6.8		c-2.5,0.7-5.9,1.9-6.8,4.7c-0.6,1.9,0.4,8,1.7,9.3c-1,0.7-2.5,1.4-3.1,2.5c-0.9,1.7,0.8,1.9-1.5,3.5c-2.7,2-4.2,5.7-6.7,1.8		c0.3,1.5,1.9,2.2,3.1,2.8c-4.1,1.9-8.4,3.8-12.7,4.4c1.4-0.7,2.2-3.9,0-3.2c-2.3,0.7-4.6,3.8-4.1,6c0.4-0.8,2.7-3.6,3.3-2.2		c-1.4,0.4-3.9,3.8-5.3,5c-3.2,2.7-5.1,6.1-7.5,9.5s-5,6.8-9,8.5c-3.4,1.4-4.1,5.7-7.4,7.1c2,1.2-8.7,5.9-9.9,7		c-1.2,1-2.5,2.4-3.2,3.8c-1.1,2.2,1.8,2.8,0.6,5.3c-2.4,5-8.3,4.5-12.7,4.7c-1.8,0.1-2.1,1.3-2.6,2.8c-0.6,1.6-2.6,4.5-2.6,6		c-1.3-0.7-1.3-2.1-1.7-3.3c0.4,1.5-0.6,2.8-1.1,4.1c1.3-4.4-5.2-1.9-6.6,0.2c-1.9,3.1-4.5,7.8-3.5,11.3c0.8,2.8,1.7,5.9,1.5,8.8		c-0.4,5,0.3,8.9,1.3,13.8c-0.4-0.8-2-4.8-2.1-1.5c-1-2.4-1.2,0.7-0.3,1.2c1.1,0.7,2.2,0.8,2.8,2c1.2,2.2-0.4,8.1-0.9,10.5		c-0.9,4.3-3.7,7.6-5.3,11.7c-1.2,3.2,0,7.8-2.5,10.4c0.4-0.4,0.9-0.7,1.4-1c1.3,1.7,1.2,4.1,1,6.2c-0.3,3.4,0.3,6.8,0,10.3		c-0.9-0.1-1.8-0.2-2.7-0.4c3.5,1.1-0.1,0.6-0.7,0.4c-1.3-0.3-3.2-1-4,0.6c-0.4,0.8-1.1,1.8-0.7,2.8c0.7,1.4-1.4,2.8-2.1,3.8		c-1.4,2.1-4,6.7-0.5,8.2c0.9,0.4,2.1,0.3,3-0.1c0.7-0.3,1.9,2.1,2.3,2.4c-3.4-3.7-9.4-1.4-13.3,0.5c-5.1,2.5-3,7.1-5.5,10.9		c-1.3,1.9-3.7,3.2-5.8,4.1c-3.2,1.4-5,0-7.3-2.1c-1.1-1-9.2-9.9-6.5-10.5c-2.4,0.9-3.2-3.9-3.9-5.9c-1.1-2.8-2.2-6.2-1.3-9.3		c0.7,1.1,0.9,2.4,0.9,3.7c0.4-3.1-0.3,3,1.6,3.2c-0.6-1.7,0-3.6-0.7-5.3c-0.6-1.4-2-2.2-2-3.9c-0.1,3.3-1,0.1-0.9-0.6		c0.2-1.7-0.7-2.2-1.4-4c-1.2-3.2-2.1-6.5-3.1-9.8c-0.4-1.2-7.2-13.5-6.7-14.1c-4.4-5.8-7.3-12.8-8.5-20.1c-0.4-2.6-0.5-5-1.3-7.4		c-0.5-1.6-1.1-3.1-1.6-4.7c-0.4-1.2-2-4.3,0.1-3.5c-2.3-0.8-1.5-4.1-2.7-5.8c-0.7-1.1-4.6-3.2-1.1-3.9c-2.1,0.9-2.9-1.5-3.4-2.9		c-0.4-1.1-0.6-2.3-1.1-3.4s-2.3-1.6,0.1-1.9c-1.1-0.3-2-1.9-1.8-3c0.1-1.2-1.1-1.5-1.9-2.8c-1.9-3-3.1-6.6-3.9-10.1		c-0.6-2.4-1.1-5-0.9-7.6c0.2-2.7-1.1-5.2-1.3-7.8c-0.2-2.5-1.4-4.6-2-7c-0.4-1.6-2.8-6.7-0.3-5.7c-0.4-0.6-3.7-5.2-0.6-3.5		c-0.4-1.9-2.6-3.1-1.5-5.3c0.4,0.3,0.8,0.7,1.2,1c0.2-1.1-0.1-2-0.9-2.7c2-0.7,1.2-2.5,0.9-3.9c-0.2,1.1-0.7,2.1-1.6,2.8		c-1.2-2.2-0.2-7.3,2.6-3.7c-0.4-1.3-5.1-2.1-3.4-3.8c0.6-0.6-1.3-3.2-1.5-4c-0.4-2.1-0.3-4.2,0.4-6.4c1-3.4,3.5-6.9,2.4-10.4		c-0.1-0.5-0.4-6.4-2.4-4.2c0.8-1.6,0.4-1.6-1-0.1c1.8-1.9-0.9-2.5-0.3-3.9c0.4-0.9,0.8-1.9,1-2.8c0.3-1.4,5.2-2.2,6.2-3.9		c-3.7,2.5-11.4,0.6-5.7-3.2c-1.9,0.8-3.9-0.5-2.4-2.4c1.3-1.7,2.9,0,4.2-1.7c-1.8,0.5-5.5-0.2-6.4-1.9c-0.2,0.9-2,1.2-2,1		c-0.2,0.8,1,1,0.9,2.3c-0.1,1.7-1.5,2.3-3,2.7c0.3,0.4,0.6,0.9,0.9,1.3c-1-0.3-1.9,0.3-2.3,1.3c3.6,1.1,4.9,3.5,2.1,6.9		c-1,1.2-0.7,2.9-2.4,3.5c-2.1,0.8-4.1,2.1-6.1,3.2c-3.5,1.9-7.5,4.3-11.3,3c-3.9-1.3-8.3-5-10.3-8.3c-3-5-8-8.2-11.7-12.6		c-1-1.2-3.7-5.1,0-5.6c1-0.1,0.9,1.7,1.5,2.1c1.3,0.7,4,0.2,4.4-1.6c1.2,1.9,7.9-1.7,9.4-3c1.2-1.1,1.2-2.8,2.1-4.1		c1-1.3,3.3-2.2,1.6-3.9c-1,0.9-0.3,3.1-2.1,3c-2-0.1-3.6,0.3-5.6,0.9c-1.7,0.5-2.5,2-4.3,1.9c-2.2-0.1-4.4-1.2-6.2-2.2		c-1.9-1-4-1.9-5.6-3.1c-1.3-1-1.2-3.5-2.8-4.1c-5.5-2,1.6-6.3,3.4-7.6c-3-0.3-5.6,5.3-8.4,4C657.1,329.5,657.3,328.6,656.9,327.7"></path>
		<rect x="802.8" y="322.9" class="st1 countryMark" width="1" height="1"></rect>
		<text x="802" y="352" dy=".35em" class="countryName" text-anchor="middle">India</text>
		<text x="802" y="352" dy=".35em" class="countryNbr" text-anchor="middle">0</text>
	</g>
	<g class="emphase" id="qatar">
		<path id="qa-_1_" class="st0" d="M418.6,304.3c0-0.7-0.8-5,1.1-3c-0.1-0.7-0.2-4.5,0.8-1.3c0.3-3.2,2.2-11.8,6.4-7.1		c1.1,1.2,3.2,2,3.1,3.9c-0.1,1.3-0.8,2.1-1.2,3.3c-0.3,1,0.2,2.4,0.2,3.4s1.1,1,1.4,1.9c0.4,1.4-0.1,2.8-0.8,4.1		c-1.2,2.3-1,4-3.7,4.8c-2.2,0.6-4.3,2.3-5.5-0.8C419.4,310.7,419.1,307.3,418.6,304.3"></path>
		<rect x="423.6" y="304.3" class="st1 countryMark" width="1" height="1"></rect>
		<text x="423" y="404" dy=".35em" class="countryName qatar" text-anchor="middle">Qatar</text>
	</g>
	<g class="countryGroup" id="egypt">
		<path id="egypt_" class="st0" d="M63.9,231.4c-2.5-4.1,2.9-8.3,2.7-12.5c-0.2-4.9-3.7-9.2,2.3-12.9c0,3.3,4,2.1,6.1,1.5		c3.8-1.1,6.9,0.1,10.6,0.5c4.1,0.4,8,1.3,11.9,2.3c1.7,0.4,1.8,2.2,3.5,2.7c1.5,0.4,2.7,0.3,4.2,0.1c1-0.1,1.4,1.4,2.5,1.6		c1.2,0.2,2.5,0.3,3.8,0.4c4,0.4,6.6,2.8,10.3,3.4c3.6,0.6,7.3-1.8,10-3.9c1.4-1.1,2.8-2.3,4.1-3.5c1,0.8,1.8,1.6,3.1,1.4		c-0.8-0.4-0.6-0.6-1.6-0.5c1.4-0.7,2.8-1.9,3.2-3.3c2.2,1.3,4.5-1,6.8-1c-1.6,0.7-3.1,1.5-4.4,2.7c0.4-0.2,9.9-2.9,5.5-3.2		c3.3-1,5.2,2.6,8.4,2.1c1.5-0.2,3-1.6,4.6-1.1c1.5,0.5,2,2.5,3.3,3.3c-1.3-0.9-2.5-2.8-4.3-3c0.4,1.3-1.7,3.9,0.6,4.4		c2.4,0.6,1.2,1.1,2.7,2.6c0-0.5,4.6-2.3,1.5-3.7c3.3,0.8,4.3,3.7,8.3,3.4c1.3-0.1,5.3-2.4,4.4,0.3c2.6-1.5,5.3-0.6,8-1.4		c2.4-0.7,3.7-0.7,5.7-2.3c2.1,5.5,4.7,10.3,6.6,15.7c1,2.6,5.1,9.9,2.8,12.5c-3.1,3.5-2,9.6-4.1,13.7c-1.2,2.4-1.3,3.9-1.4,6.5		c-0.1,2.2-3.1,4.3-2.5,6.4c-1.3-1.2-3.1-1.8-4.6-2.8c-1.8-1.3-3.1-3.2-4.3-5c-1.5-2.3-6.3-3.8-5.4-7.3c0.9-3.5-2.5-6-4.1-8.4		c-2.3-3.4-3.8-7.4-4.5-11.5c-1.8,1.7-3.8,5.5-2.2,7.5c2.8,3.4,2.2,7.5,4.5,11c2,3,4,6.7,6.5,9.3c1.1,1.1,2.4,2.1,3.5,3.4		c0.5,0.7,2.7,4.4-0.1,2.4c2.2,1.7,0.2,3.9,1.5,5.3c1.8,1.9,2.7,3.9,3.6,6.3c0.4,1.2,1.2,2.2,1.8,3.3c0.5,0.8-0.6,1.8-0.7,2.6		c-0.1,1.1,1.6,2.6,2.1,3.6c1,2.1,2.2,4.1,3.2,6.2c3.4,6.9,6.9,13.6,10,20.6c1.2,2.7,3.2,4.7,4.8,7.1c1.5,2.3,4.3,3,5.7,5.3		c-1.4,0.1-2.8-0.2-4.1-0.8c-1.1,3.7,0.1,8,1,11.6c0.6,2.3-2.7,6.4-5.3,6.4c-1.4,0-2.9-1.1-3.8,0.6c-0.7,1.4-1,3-1.6,4.4		c-0.6,1.7-1.5,3.1-3.4,3.6c-1.5,0.3-4.7-0.2-5.6,1.5c-1.6,3.1-0.6,5.8-5.1,6.4c-4.2,0.5-5.6-3.6-9.1-4.4		c-7.2-1.5-15.1,1.4-22.5,0.2c0.2-0.7,1.1-2.2,0.6-2.9c-1.2-1.8-2.3,1.5-2.8,2.1c-1.8,2.4-10.3,1-13,1c-9.8,0-19.6,0-29.5,0		c-9.8,0-19.6,0-29.4,0c-4.3,0-9.6,0.8-13.8,0c-1.1-0.2-0.7-9.6-0.7-10.9c-0.2-19.3,0.1-38.6,0-57.9c0-9.4,0.6-18.8,0.4-28.2		c-0.1-4.5,0.2-9.3-0.3-13.8C66.3,240.5,65.6,234.8,63.9,231.4"></path>
		<rect x="130.8" y="261.1" class="st1 countryMark" width="1" height="1"></rect>
		<text x="130" y="291" dy=".35em" class="countryName" text-anchor="middle">Egypt</text>
		<text x="130" y="291" dy=".35em" class="countryNbr" text-anchor="middle">0</text>
	</g>
	<g class="countryGroup" id="pakistan">
		<path id="pakistan_1" class="st0" d="M556.6,233.5c5.7,1.3,10.7,4.1,16.2,5.7c6.6,2,12.4-0.1,19.3-0.2c2.4,0,4.3,0.9,6.7,1.2		s4.3-1.3,6.6-2.1c3-1,5.4,0.1,8.2,0c2.4-0.1,4.8-1.3,7.2-1.8c2.8-0.6,8-1,10.1-3.4c1.3-1.4-1-2.2-0.5-3.6c1.3-3.4,0.1-6.1,1-9.4		c0.9-3.3,1.5-2.6,3.9-4.6c1.5-1.2,2.1-3.2,4-4.1c1.9-0.9,2.2,0.9,3.9,1.1c2.8,0.3,5.5-0.6,8.3-1.8c-0.9-1-2.7-1.1-2.9-2.7		c2.5,0,5.3-1.5,7-3.5c2-2.3,5.2,1.6,5.8-1.3c1.7,0.8,2.6,0.4,3.4,2.3c0.7,1.6,2.3,1,3.8,0.1c4-2.5,3.9-7.2,3.1-10.5		c-0.5-2.1,1.3-2.5,2.1-4.3c0.6-1.4,1.1-3.6,0.8-5c-0.3-1.7,1.6-2,2.9-2.2c2.1-0.4,3.1,0.2,5.3-1.2c2.6-1.7,2.6-1.8,2-4		c-0.5-1.8-1.2-3.8-2.8-4.9c-3.1-2.1-3.1-5.1,1.6-3.9c3.2,0.9,11.1,1.9,12.9-2.6c0.5-1.3,0.7-2.3-0.2-3.2c-0.4-0.4-2.2-1.7-1.6-2.5		c0.4-0.4,0.9-0.5,1.5-0.4c-0.3-1.3,1-2.3,2-3.2c0.9-0.8,3.8-2.7,4-3.7s0.8-1.8,1.6-2.6c0.6-0.7-0.9-1.3-1.1-1.7		c-0.1-0.5,0.1-0.8,0.6-1c0.9-0.8,0-2.3-0.1-3c-0.1-0.9-1.3-3.2-1.8-4c-0.7-1.2-2.2-2-3.1-2.9c-1.3-1.3,4.9-7,6.4-6.5		c2,0.6,2.7-1.6,4.3-2.8c1.7-1.3,3.7-2.1,5.7-2.7c4.3-1.2,8.5-1.2,12.7-1.3c2.1-0.1,5.3-1.1,7-0.2s1.7,1.4,3.7,0.2		c2.8-1.7,9.6-4.4,10.2-0.6c2.5-2.9,6.3-0.5,7.1,1.4c0.7,1.8,4.5,0.8,6,2.6c1.1,1.2,1.7,2.6,1.7,4.4c0,1.3-0.6,3.5-0.4,4.6		c0.3,1.2,2.8,2.8,3.6,3.7c1.1,1.2,3.5-0.8,4.9-1.1c-1.1,5.6,12.4,7.9,17.1,6.2c-1.6,1.1-10.7,4.9-10.5,6.9c0.1,0.8-1.2,2.6-2.1,1.9		c-1.1-0.8-1.9,1.3-2.5,2.2c-0.6,1-9.1,2.2-10.8,2.9c-5,2.1-7.7,0.4-12.3-0.6c-3.7-0.8-8.5-3.2-12.8-1c-3,1.5-5.3,5-2.3,6.3		c2.8,1.2-1.8,3.1,0.6,3.9c0.8,0.2,6.3,0.3,3.7,2.3c-2.3,1.8-4.9,2.6-1.9,4.9c2.5,1.9-1.4,4.6,0.2,6.5c0.9,1.1,2,1.7,3.1,2.6		c0.5,0.4,0.7,0.9,0.7,1.5c-0.2,1.8,0.3,1.4,2.2,1.8c3.3,0.7,1.3,4.3,5,5c2,0.4,5.4,0.5,6.5,2.2c1.4,2-4.7,4-6,4.5		c-3.2,1.3-6.7,3.6-4.6,6.7c1.3,2.1-2.5,7.6,1.5,7.6c-0.9,1.4-4.8,2.3-5.5,4.1c-1,2.5-6.7,5.8-4.9,7.8c2.6,3-4.7,4.4-6.4,5.3		c-1.7,1-1.8,3.3-2.3,4.8c-0.9,2.5-2.1,5.1-3.6,7.3c-2.3,3.4-6,4.1-8.9,6.7c-1.2,1-1.7,2.4-2.1,3.8c-0.6,2.4-3,3.8-4.2,6		c-2.6,4.6-5.2,3.4-9.9,4.6c-1.6,0.4-3.6,1.9-5.2,1.8c-1.9-0.2-2.5-2.5-3.3-3.8c-1.8-3.1-6,1.6-7.2,3.6c-2.1,3.5-5.2,6.4-7.1,9.8		c-2.4,4.2-0.3,6.5,3.7,7.5c3.7,0.9,5.6,1.1,4.8,5.7c-0.5,2.6-1.6,8.5,3,8.5c1.3,0,3-0.9,4,0.1c1.1,1-0.2,3.8,0.7,5.3		c1.8,3,3.9,5.2,4.5,8.9c0.2,1.4,1.1,1-0.4,2c-1.2,0.8,0.3,3.4,1.3,3.6c-2.7,1.8-5.6,4.1-7.3,0.7c-0.8-1.6-2.4-0.4-3.7,0.1		c-0.6,0.2-1.3,0.4-1.9,0.6c-1.1,0.5-0.6,1.7-1.7,2.2c-3.7,1.5-7.3-1.9-11.1-1.7c-2,0.1-4.7,0.4-6.4-0.4c0,1.4,0.8,5.4-1.8,5.4		c-2.2,0-5.7,0.1-5.8,3.1c0-1.8-0.2-1.7-0.7,0.1c-0.8-0.7-1.3-1.8-1.8-2.7c0.4,0.8,0.4,1.7,0.1,2.6c-0.9-0.6-1.7-1.3-2.3-2.2		c0.4,2.4-1.4,1-2.9,1.8c0.1-0.7,0.1-1.4,0.2-2.1c-1.7,1.1-3.6-1-1.6-2.1c-2.2,0.4-4.9-2.7-2.5-4.4c-2.4-1.4-0.6-5.5-2.6-6.5		c-1.1-0.6-7-0.8-6.6-2.6c0.7-3.7,0-4.8-1.6-7.7c-1.2-2.2-5.2-4.4-6.3-0.5c2.3-0.1,4-2.1,4.9,0.9c-2.3-1.5-5.1-0.6-7.7,0.2		c-2.7,0.8-5.1-0.1-7.6,0.6c-1.4,0.4-10.7,0.3-8.6,2.8c-1.1,0.3-1.8-0.2-1.7-1.3c-3.8,1.8-6.2-3.4-8.2-2.6c0.3,0.4,0.5,0.9,0.8,1.3		c-1.9,0.4-9.1-2-7.6,2.3c-1.8-0.9-16-2-15.1,1.5c-1,0-1.6-1.4-2.3-1.8c-1.3-0.7-1.5,1-2.3,1.5c-3.5,1.9-5.7-0.3-5.3-3.1		c0.5-3.9,0.9-17.8,8.4-16.1c-1.7-5.7,11.6-2.6,12.6-5.8c0.5-1.4,1.7-6.6,1.2-7.1c-1.3-1.1-3.3-0.3-5-0.4c-2.3-0.1-1.5-3.9-1.3-5.5		c0.3-3-0.2-6.8-0.8-9.6c-0.3-1.3-2.7-1.4-3.8-2.1c-1.8-1.2-3.8-1.9-5.8-2.9c-4.4-2.1-5.9-5.2-7.8-9.3		C563.2,240.6,559.7,237.1,556.6,233.5"></path>
		<rect x="689" y="219.5" class="st1 countryMark" width="1" height="1"></rect>
		<text x="689" y="249" dy=".35em" class="countryName" text-anchor="middle">Pakistan</text>
		<text x="689" y="249" dy=".35em" class="countryNbr" text-anchor="middle">0</text>
	</g>
	<g class="countryGroup" id="nepal">
		<path id="nepal_1" class="st0" d="M819.3,247.3c1.1-2.1,3-3.2,2.3-5.4c-0.4-1.4,0.1-2,1.2-3.4c1.3-1.7,0.3-2.9,2-4.5		c2.5-2.2,5.3-6.7,8.1-4.4c0.5,0.4,0.9,2.1,2,1.4c1.7-1.1,2.5-3.3,2.6-4.9c1.6,0.6,2.3-1.3,3.3-0.9c1.9,0.6,4.6-0.1,5.6,1.8		c1.8,3.4,7,6.6,10.4,8.5c2.8,1.6,5,1.8,6.7,4.3c1.8,2.6,2.7,4.9,6.2,3.3c1.9-0.9,3.6-0.3,4.7,0.9c1.3,1.3,0.7,4,2,4.7		c2.4,1.3,5.5,4.8,8.6,4.5c1.6-0.1,2.7-0.8,3.4,0.5c0.6,1-1.7,1.9-0.3,3.1c1.1,1,6.5,2.8,7.6,0.2c0.4,2.5,3.1,3.6,3.9,5.9		c1,2.9,2-2.7,2.7-3.2c-0.2,1.6,3.1,5.1,4.8,2.9c0.6-0.8,0.6-2.4,2-1.7c1.2,0.6,2,1,3.4,1.4c1.5,0.5,1.9,1.5,3.2,2.2		c1.1,0.6,2.7-0.2,3.9,0.3c2.5,1.2,6.4-1.6,8.9-0.6s-1.2,7.9-1.3,10.1c-0.3,4,3.2,5.7,1.5,10.2c-1.3,3.7-4.1,1.9-7.6,2.3		c-2.8,0.3-6.7,1.1-6.7-2.6c-2.6,0.8-3.7,2.9-6.3,1.3c-1.2-0.8-7-2.8-8.5-2.3c-3,1.1-2.3-0.3-3.6-1.8c-1.9-2.4-4,0.6-6.5,0		c-1.9-0.4-2.9-2.9-4.8-3.4c-2.7-0.7-2.2-1.7-2.9-3.9c-0.7-2.2-11.9-5.5-11.1-2c-1.4-0.7-3.3-2.4-5.2-1.5c-2.7,1.2-3.3,1.5-6,0.2		c-1.5-0.7-3.6-0.8-4-2.5c-0.6-2.5-2.9-0.7-4.8-1.9c-1.8-1.2-3.1-2.2-5.4-2.5c-3.1-0.3-4.9-2.1-7.5-3.4c-2.3-1.1-3.3-3.6-5.4-4.9		c-2.2-1.5-4.8-2.5-7-4c-0.4,2.4-2.7,0.2-4-0.7C820.2,250.4,817.8,248.8,819.3,247.3"></path>
		<rect x="874.1" y="256.1" class="st1 countryMark" width="1" height="1"></rect>
		<text x="874" y="266" dy=".35em" class="countryName" text-anchor="middle">Nepal</text>
		<text x="874" y="266" dy=".35em" class="countryNbr" text-anchor="middle">0</text>
	</g>
	<g class="countryGroup" id="bangladesh">
		<path id="path3240_1_" class="st0" d="M961.7,334c-0.4,0-0.8-0.1-1.2-0.1c0.6,0.5,1.4,0.9,2.2,1C962.4,334.6,962,334.3,961.7,334"></path>
		<path id="path3242_1_" class="st0" d="M961,342.5c-0.1,0.8,0.2,1.4,0.8,1.9c0-1,1.9-1.8,1.9-1.7C963.8,341,962,341.6,961,342.5"></path>
		<path id="path3244_1_" class="st0" d="M962.8,340.2c0.3,0.3,0.6,0.5,1,0.8C963.5,340.6,963.2,340.3,962.8,340.2"></path>
		<path id="path3246_1_" class="st0" d="M962.3,345.1c0.4,1.4,1.5,2.2,1.8,3.7c0.1,1,0,2-0.3,2.9c-0.2,0.8-2,4.6,0.3,1.9		c-0.4,0.5-0.5,1-0.3,1.4c2,0.9,3.1-5.7,3-6.6c-0.2-1.6-2.8-3.1-2.6-4.6C964.2,342.4,962.2,343.6,962.3,345.1"></path>
		<path id="path3248_1_" class="st0" d="M961.5,354.3c0.3,0.5,1.1-0.7,0.3,0.9c0.7-0.7,0.9-1.5,0.7-2.3		C962.2,353.4,961.9,353.9,961.5,354.3"></path>
		<path id="path3250_1_" class="st0" d="M963.5,348.7c-0.1,0.6-0.1,1.1,0,1.7C963.7,349.8,963.7,349.2,963.5,348.7"></path>
		<path id="path3252_1_" class="st0" d="M968.7,353.8c3.3-1.5,1.7-4.7,0.7-6.7C969.7,349.3,969.3,351.6,968.7,353.8"></path>
		<path id="path3254_1_" class="st0" d="M975.5,349.7c1.5-1.3-0.3-3.2-1.2-4C973.7,347.3,974.3,348.8,975.5,349.7"></path>
		<path id="path3256_1_" class="st0" d="M980.3,356.4c-0.4,0.9-0.6,1.8-0.5,2.7C980.2,358.2,980.4,357.3,980.3,356.4"></path>
		<path id="path3258_1_" class="st0" d="M980.4,363.2c2.3-0.8,1.1-3.5-0.4-4C980.2,360.6,980.1,361.9,980.4,363.2"></path>
		<path id="path3340_1_" class="st0" d="M931.5,285.6c0.1-0.6,0.3-1.1,0.6-1.7c1.4,1.1,3.8,1.7,4.3,3.5c0.4,1.6,3.3,1.6,4.6,2.1		c-0.2-1.1-0.7-2-1.5-2.7c2.3-0.4,2.4,1.6,3,3.1c0.9,2.3,3.9,2.7,5.8,3.9c0.6-1.1,1.1-2.1,0.6-3.2c4.1-0.3,3.9,7.5,3.7,9.9		c-0.1,1.6-0.8,3,1,3.7c2.7,0.9,6,1.7,9.1,1.7c6.4,0,13-0.6,19.3,0c2.9,0.3,10.5,5.2,3.4,4.6c1.6,4-3.9,7.6-4.8,10.8		c-1.1-1.1-2.7,1-3.4-0.4c-0.1,2.1-2.4,1.7-3.8,1.5c0.3,1.8-2.3,4.7-2.7,6.6c-0.6,2.7,1.6,6.6,2.4,9.1c0.4-0.9,0.5-1.7,0.5-2.6		c1.2,0.6,2.6,7.2,5.5,3.3c1.1-1.5-0.3-3.9,0.8-5.8c1.1-1.8,1.6-2.2,1.2-4.2c1.6,1.5,4-2.3,4.8,0.4c0.9,3.3,1.1,7,1.7,10.4		c0.7,4.4,1.7,8.6,2.2,13c0.5,4.3,0.1,9,1.3,13.1c-1.6,0.5-3.1-2.2-5-1.9c-2.8,0.4-0.1,8.2-0.3,9.8c-1-1.9-2.9-4.3-3.3-6.5		c-0.4-2.3-0.3-3.7-0.3-5.9c0-4.2-5.2-8.6-1.4-12.9c-0.9,0.7-1.6,1.9-1.7,3c-0.7-3.5-4.9-6.4-4.1-10.4c-0.3,1.7-2.3,2.3-3.4,3.4		c-0.4,0.4-0.6,0.9-0.5,1.4c-1.2,0.4-2.2-0.2-2.6-1.2c0.2,0.5,0.2,0.9-0.1,1.3c-2,1.1-4-5.6-4.5-6.4c-0.4-0.8-0.5-1.8-0.2-2.7		c0.3-1.6-0.4-2.1-0.7-3.5c-0.2-1.1,1.8-1.5,1.2-2.4c-0.4,1,1.3,0.5-1.3,0.8c0.1-0.5,0.3-0.9,0.4-1.4c-0.7,0.5-1.4,0.6-2.1,0.3		c0.5,0.4,2.4,3.3,0.3,3c-1.1-0.1-2.9-0.8-3.5-1c1.6,1,4,1.8,4.8,3.6c0.5,1.2-0.9,2.1-2,2.5c1.1,1.6,0.2,3.1-1.1,4.5		c2.5,0.1,1.4,2.4,1,4.1c0.4-0.4,0.8-0.9,1.2-1.3c1.8,1.8,1.6,6.4-1.9,7.1c0.3-0.9,0.3-1.8-0.1-2.6c0,2.1-0.8,3.9-1.5,5.9		c-0.8,2.4-3.6,1.4-2.1-0.5c-0.4,0.4-0.9,0.8-1.3,1.2c-0.4-2.3,2.4-3.1,2.9-5.1c-0.9,1.2-2.1,2.1-3.3,3c0.2-0.9,0.6-1.7,1.1-2.4		c-0.7,0.8-1.3,1.6-2,2.4c-0.5-2.6-0.5-4.8,0.9-7.5c-3,1.2-0.9,3.8-2.1,5.7c-0.9,1.4,0.8,1.5,0,3.2c-0.8,1.5-2.2,0.7-2.7-0.2		c-0.2,0.8-0.4,1.6-0.5,2.4c-2.1,0,0-7.5,0.1-8.7c-0.9,1.7-0.3,3.4-0.9,5.1c-0.5-1.4-1-2.9-1-4.5c-0.3,2.6,1.8,6.4-1.2,9		c-0.6-1.3,0.3-2.8-0.5-4c0.4,1.3-0.9,4.1-2,5c0.5-2.5-1.9-4.4-1.9-7c0-3-1.3-5.3-1.6-8.1c-0.1-1.4-0.2-2.8-0.5-4.1		c-0.4-1.8,0.3-2.7,0.4-4.4c0-1-1.4-0.9-2.1-1.1c-1.4-0.3-0.3-2-0.1-2.9c0.5-2.1-3.5-2.2-3-5.1c0.3-1.4,2-1.9,2.3-3.3		c0.4-1.3,0.1-2.9-0.3-4.1c-0.6-2-4.7-2.2-6.4-3.5c-1-0.7-2.8-1.8-2.7-3.3c0.1-1.6,1.7-2.7,2-4.2c1.7,3.8,3.6-3.4,4.2-3.5		c1.5-0.3,4.7-0.6,5.9,0.1c2.1-2.7-1.7-1.7-1.6-4.2c0-1.7-2.5-0.3-3.7-1.1c-1.6-1.1-2-3.2-3.9-4c-4.8-2-1.3-7.7,3.1-9.3		C934,286.2,932.7,285.7,931.5,285.6"></path>
		<rect x="949.9" y="315.3" class="st1 countryMark" width="1" height="1"></rect>
		<text x="949" y="325" dy=".35em" class="countryName" text-anchor="middle">Bangladesh</text>
		<text x="949" y="325" dy=".35em" class="countryNbr" text-anchor="middle">0</text>
	</g>
	<g class="countryGroup" id="indonesia">
		<path id="path2528_1_" class="st0" d="M1556.8,755.9c-0.9,0.6-0.6,1,0.8,1.3C1557.3,756.7,1557,756.3,1556.8,755.9"></path>
		<path id="path2530_1_" class="st0" d="M1559,722.3c-1.2,0.4-1.3,1.7-0.9,2.7C1558.2,724,1558.5,723.1,1559,722.3"></path>
		<path id="path2532_1_" class="st0" d="M1561.1,726.4c-1-0.2-1,0.2-0.3,1.3C1560.9,727.3,1561,726.8,1561.1,726.4"></path>
		<path id="path2540_1_" class="st0" d="M1567.9,709.8c-1.6,0.3-1.3,3.6,0.4,3.1C1569.3,712.6,1568.3,710.3,1567.9,709.8"></path>
		<path id="path2542_1_" class="st0" d="M1571.1,718c0,0.3-0.1,0.5-0.1,0.8c0.9-0.1,1.8-0.2,2.7-0.5		C1572.8,718.2,1571.9,718.1,1571.1,718"></path>
		<path id="path2544_1_" class="st0" d="M1574.5,705.2c0,2,3.4,4.6,4.9,2.3C1580.4,705.9,1575.3,705.3,1574.5,705.2"></path>
		<path id="path2546_1_" class="st0" d="M1576.1,720c-0.1,0.4-0.2,0.9-0.2,1.3c3.3,0.2,6.2,2,9.4,2.7c1.4,0.3,2.8,0.9,4.2,0.5		c1.6-0.4,3.3-1.4,5-1c-1.4-2-4.9-1.9-7-2.1C1583.7,720.9,1579.9,720.4,1576.1,720"></path>
		<path id="path2548_1_" class="st0" d="M1605.5,824.2c-0.1,0.4-0.2,0.9-0.3,1.3c2.6-0.9,5.5-0.5,8.3-0.5c2.7,0,4.2-1.4,6.1-3		c0.8-0.7,5.9-7.6,4.6-9c-3.6-4.1-5.8-4.5-10.7-2.4C1608.5,812.7,1607.1,819.5,1605.5,824.2"></path>
		<path id="path2550_1_" class="st0" d="M1621.4,825.2c0.4-0.1,0.8-0.3,1.3-0.4c-0.8-1.3-0.9-3.8-3-3		C1616.9,823,1619.4,825.2,1621.4,825.2"></path>
		<path id="path2552_1_" class="st0" d="M1618.5,799.2c0.2,1,0.9,1.7,1.8,1.9C1620.1,800.2,1619.5,799.5,1618.5,799.2"></path>
		<path id="path2562_1_" class="st0" d="M1518.4,710.7c0.4-1,0.2-1.9-0.5-2.7c4-1,7.3-1.2,10.4-4.1c2.9-2.7,5.9-3.8,9.8-2.9		c3.9,1,5.9,3.9,9.3,5.3c3.4,1.5,7-0.5,10.2,2c-2.4,1.8-0.1,4.2,1,6.1c1.4,2.5-0.2,4.5-1.1,6.8c-2.3,5.8,1.2,12.8,3.9,17.9		c0.9-1.3-0.4-4.3,1.1-5.2c2.1-1.4,1.8,4.8,1.9,5.3c0.1,1.2,0.4,1.5,1.2,2.2c1.2,1.1,0.6,2.6,1.6,3.8c2,2.2,6,3.4,8.3,1		c1.6-1.7,3.3-3.2,5-4.9c1.8-1.7,2.1-4.1,4.5-5.6c2.1-1.3,1.5-6.3,4.2-6.3c3.2,0,4.8,0.3,7.8-1.3c2.1-1.1,2.2-1.9,1.3-3.9		c-0.7-1.5,4-3.7,4.9-4.2c2.4-1.3,4.6-2.2,7.1-0.9c3.3,1.7,7.3,2.9,10.2,5.1c2.5,1.9,5.3,2.9,8.1,4.3c1.9,1,5.6,3.9,7.9,3.1		c2.8-1,4,1.2,6.9,1.1c3,0,4.5,3.1,7.5,2.7c-0.3,9-0.8,18-0.8,27c0,9.4,1,19.1,0.6,28.4c-0.1,3-2.2,5.1-1.8,8.3c0.2,1.3,1.9,2,2,2.8		c0.2,2,0,4,0.1,6c0.2,9.4,0.4,18.8,0.3,28.2c-4-1.9-5.2-6.3-8.4-9.1c-1.6-1.4-7.4-4.9-5.1-7.3c-1.6,1.3-4.6,0.8-6.6,1.6		c-1.7,0.7-4.8,0.8-4.2-2c-0.8,1.1-2.8,3-4.2,3c-2.2,0,0-3.8,0.2-4.3c0.6-1.7,2.7-5.7,0.8-6.6c-1.7-0.9-2.3-3-3.7-4.2		c1.9-1.8,5,1.4,6.4-1.4c-2.7,2.9-6.9-1.7-9.1-3.5c2.4-3.1,5.8,0.5,8.6,0.6c-2.5-0.9-4.6-2.6-6.9-3.9c2.5-0.4,0.2-1.2-0.7-2.1		c-1.3-1.2-2.6-2.7-3.2-4.4c-0.8-2.2-3-6.2-0.2-7.3c-2.7,1-3.1-2-0.5-2.4c-1,0-3.3,1.5-4.1,0.4c-1-1.4,0.7-3.1,0-4.6		c-0.6,3.3-3.4-2-4.5-2.4c-1.9-0.8-2-1.2-3.5-1.9c-1.1-0.5-3.8-1.2-4.5-2.3c-1-1.5-6.5-1.6-8.3-2.7c-2.8-1.6-6.1-3.4-9.1-4.4		c-3-0.9-7.2-0.1-9.8-1.3c-2.3-1.1-5.5-2.7-6.6-5.2c-1-2.3,2.7-2,4-2.2c-1.6-0.5-3.6-1.3-4.7,0.3c-1.3,1.8-2.4-1-3.7-1.3		c0.1,2.6-4.1,0.7-2.3-1.1c-2.8,0-3.9,0.1-4.8-3.4c-0.1,1-0.6,1.8-1.4,0.8c-1.2-1.4-0.3-2.3-0.4-3.8c-0.3-2.8,2.5-4.3,2.6-7.1		c-0.7,1.4-3.1,2-3.1,3.8c0,1.6,0.2,4.1-2.2,4c2,0.9,0.4,2-0.2,3.1c-0.4,0.4-0.8,0.8-1.2,1.3c0,0.9,0,1.7,0,2.6		c-0.5,1.8-4.1,3.8-6.1,3.2c-1.7-0.5-3-4.5-3.1-6c-0.1-1,1.2-1.1,1.9-1.4c1.8-0.9-1-3.1-0.6-4.7c-2.2,1.3-5-5.8-8.1-5.9		c-4.8-0.2-2.2-3.5,1.2-3.9c3.6-0.4,6.2,3.2,8.7-1c1.9-3.1,7.6-4.1,6.1,1c0.4-0.9,0.7-1.8,0.9-2.7c0.5,2.5,3.3-0.6,3.2,2.1		c0.4-2.1,1.1-1,1.7,0.1c0.5-1.1,0.6-2.6-0.4-3.5c0.9,0.2,1.8,0.1,2.6-0.3c-0.7-0.9-0.7-1.8,0.1-2.6c-2.7,2-0.6-1.5-0.1-2.1		c-2.9,0.2-4.5,2.1-7.7,1.6c-2-0.3-4.6,1.6-6.3,0.9c-2.1-0.8-3,0.7-4.6-1c-0.6-0.6-2.2,0.5-2.7,0.5c-1.8,0.1-3.3-1.5-4.6-2.5		c0.3-0.4,0.7-0.9,1-1.3c-1.5,0.3-2.8-1.4-2.3-2.8c0.2-0.5,0.9-1.2,0.8-1.8c-0.3-1.5-2.6,1-1-1.8c-1.3,0.3-1.6,0.3-1.5-1.2		c-1.8,2.7-5.5-2-7.1-1.9c1.5,2-2.1,1.7-3.1,1.1C1512.8,715.9,1517.9,712.5,1518.4,710.7"></path>
		<path id="path2206_1_" class="st0" d="M1040.7,658.5c0.6,0.4,2.6,0.6,2.3-0.8c-0.1-0.7-2.3-2-2.8-2.6c-0.6-0.7-1.4-1.3-2.4-1.1		c0.6-1.4-1.4-2.5-2.4-3c-0.5-0.2-0.9-1.3-1.6-0.7c-1.3,1.1-1.3,2.1-0.1,3.3C1035.7,655.6,1039.5,655.6,1040.7,658.5"></path>
		<path id="path2348_1_" class="st0" d="M1355.5,775.2c-0.5,2.2,0.8,4.2,0.6,6.3c1.9-0.9,3.3,2.9,5.5,1.2c1.5-1.1,1.5-1.4,3.5-1.1		c1.9,0.2,3-1.9,4.8-0.5c-0.3-3-2.9-5.6-1.9-8.7c1.2-3.8,1.7-6.3,1-10.4c-0.6-3.5,0.1-6.2,0.2-9.6c0.1-1.5-0.1-3.1,0.1-4.6		c0.3-2.6-0.9-2.6-1.5-4.8c-1.3-4.3,6.1-7.8,9.3-6.7c2.9,0.9,2.1,7.4,0.5,9.1c-4.3,4.8,3.3,10.2,7.5,12.5c1.8,0.9-2.2,7.5-0.3,10.2		c1,1.4,4.3,2.2,5.9,2.4c2,0.3,1.3-2.9,1.5-4.1c0.4-2.6,4-2.1,5.8-2.8c1.1-0.4,5.5,1.8,2.8-1.3c2.1,3.3,4.4-3.4,0.9-4.4		c-0.4,3.1-1.5-1.2-3.2-1.2c0.3-0.5,0.6-0.9,1-1.4c-1.4-0.1-3.3-1.9-4.1-2.9c-1.4-1.7,0.3-3.1-0.9-4.8c0.6,0.2,1.3,0.3,1.9,0.4		c-1.5-0.9-1.1-3.1,0.8-3c-0.3-0.7-0.8-1.2-1.4-1.7c-1-1.1-0.3-2.3-1-3.5c-0.6-1-1.9-1.1-2.6-2.1c-0.7-1.1-1-2.8-1.6-4		c-0.9-1.8-1.7-3.6-3.6-4.5c-1.6-0.8-2.3-4-4.4-3.1c0.1-1.1,0.1-2.2,0.1-3.3c2.2,1.8,3.9,3.5,6.1,0.5c1.9-2.6,3.9-2.7,6.6-4.2		c3.7-2.1,6.4-10.8,11.2-10.6c1.4,0,1.7,4.1,3.3,2.4c1-1,2.8-3.6,1.8-5c-1.6-2.4-7.9-1.6-9.9,0c1.1,0.1,2,0.5,2.7,1.3		c-2.5,0.1-9.8-1.7-10.7,1.6c-0.6,2.2-7.2,2.1-6.8-0.9c-2.2,1.4-4.5,3.6-5.6,5.9c-1.2,2.6-1.7,4.1-4.7,3.4c-1.9-0.4-3.8-0.9-4.3-3.1		c-0.3-1.1-0.4-2.2-1-3.2c-1.1-1.8-1.9-0.3-3.1-1.2c-4-2.9-4.2-11.9-2.5-16c1-2.3,2.6-4.9,4.9-6.1c1.9-1,6.5,0.7,8.5,1.4		c1.4,0.5,4.1-0.7,5.3-1.2c2.6-1.2,3.3,0.6,5.8,1c2.8,0.4,6.5-1.1,9.4-1c3.6,0.1,5.8,0.3,8.7,2.3c3.5,2.6,14.5,0.8,17.4-2.5		c2-2.3,2.6-4.9,5-7c2.5-2.3,2.4-6.2,5.2-8.3c-1-0.6-1.5-1.7-1.2-2.8c-1,0.3-2.4-0.5-3.3,0.3c-1.3,1.1-1.2,3.2-2.9,3.7		c-2.7,0.8-1,1.6-2.2,3.3c-0.7,1-2.5,0.6-3,1.9c-1.3,3.3-6.3,3.9-9.2,3.3c-2.4-0.5-5.2-1.1-7.7-0.9c-1.4,0.1-2.7,1.6-3.8,1.1		c-3.6-1.4-6.1-2.1-9.9-2.5c-2-0.2-3.1-0.8-5.2-0.6c-2.4,0.2-3.1-3-4.3-3c-1.6,0-7.3-2.8-7.6,0.4c-0.4,4.4-4.4,8.6-7.6,4		c-0.3,1.4-0.8,2.5-1.9,3.5c-1.5,1.3-1.2,3.4-2.6,4.6c-2.8,2.3,0.9,6.2-2,8.2c-0.2-1-1-1.7-2.1-1.4c0.7,2.7,2.8,2.1,2,5.2		c-0.8,2.9,1.9,5.5,1.1,8.4c-0.6-1.1-0.9-2.3-1.8-3.2c-1.6,4.4-5,6.6-5.2,11.6c-0.1,2.2,0.1,4.6,0,6.7c-0.2,2.5-2.5,4.2-2.7,6.9		c-0.2,3.6-6,5.2-5.1,8.2c0.5,1.7,1.9,0.6,0.4,3c-1.2,2.1,0.4,6.5,1.3,8.7c1.2-1.3,4.1-1.8,5.8-1.9c3.6-0.2,0.8,3.3,2.1,5.3		c2.1,3.4,1.8,6.4,1.4,10.3C1358,767.6,1357.5,772.6,1355.5,775.2"></path>
		<path id="path2366_1_" class="st0" d="M1390.9,773.8c-4.1,1.4-0.1,6.1,0.1,5.9C1392.1,778.6,1391.8,774.9,1390.9,773.8"></path>
		<path id="path2368_1_" class="st0" d="M1390.6,702.5c-0.7-1.3-2.5-1.3-2.6,0.4C1388.9,703.2,1389.8,703.1,1390.6,702.5"></path>
		<path id="path2370_1_" class="st0" d="M1392.5,701.1c-0.8-1.2-1.8-1.1-2.7,0C1390.6,701.7,1391.6,701.6,1392.5,701.1"></path>
		<path id="path2372_1_" class="st0" d="M1398.7,779.3c0.5-0.7,1.7-2.1,1.2-3c-1-1.8,0.8-2.6,1.1-4.1c0.2-0.8,1-6.5-1.2-5.3		c-1.1,0.6-2.6,1.4-3.5,2.2c-1.8,1.5,1.1,3.5-0.1,5.1c-0.5,0.6-1.7,2.8-1.2,3.7c0.8,1.3,3,0.9,2.9-0.6		C1398.2,777.9,1398.4,778.6,1398.7,779.3"></path>
		<path id="path2378_1_" class="st0" d="M1405.8,763.3c-3.3,0.1-4.1,7.2-4.1,9.7c0,2.6-1,3.8-1.8,6.2c-1,3,0.8,2.2,2.5,3.9		c0.7-1.1,0.7-2.6,1.5-3.6c0.8-1.1,2.4-0.5,3.1-1.5c1.1-1.4-1.5-4-2.8-2.5c0.3-1.6,0.1-3.2,0.5-4.8c0.2-1,1.9-4.4,2.5-1.4		C1408.6,767,1405.8,765.6,1405.8,763.3"></path>
		<path id="path2386_1_" class="st0" d="M1408.7,720.6c-0.1-0.9,0-1.8,0.2-2.7c4.9,2.5,3.6-7.2-0.3-1.2c-1.3-1.9,1.3-2.4-1.3-3.2		c-0.9-0.3-1.9-0.4-2.8,0.2c-1.9,1.2-1.4,4.4-0.9,6.2c1.4-0.7,2.3-2.2,2.9-3.6C1408,717.3,1406.7,720.5,1408.7,720.6"></path>
		<path id="path2388_1_" class="st0" d="M1405.3,756.8c-1.4,0.6-1.1,3.3,0.4,3.9C1407.9,761.5,1408.9,757.2,1405.3,756.8"></path>
		<path id="path2394_1_" class="st0" d="M1409.8,713.8c-0.4,0.5-0.7,0.4-0.3,1.3C1409.6,714.7,1409.7,714.2,1409.8,713.8"></path>
		<path id="path2396_1_" class="st0" d="M1410.5,721.4c-0.6,0.2-0.9,0.6-0.9,1.3C1409.9,722.3,1410.2,721.8,1410.5,721.4"></path>
		<path id="path2398_1_" class="st0" d="M1412.2,776.5c0.2,0.9,0.1,1.3,1.2,1.3C1413,777.3,1412.6,776.9,1412.2,776.5"></path>
		<path id="path2400_1_" class="st0" d="M1414.6,779.8c0.1,0.7,0.6,1.1,1.4,1.2C1415.5,780.6,1415,780.2,1414.6,779.8"></path>
		<path id="path2404_1_" class="st0" d="M1418.5,786.4c-0.9,0.9-0.6,1.4,1,1.3C1419.2,787.2,1418.9,786.8,1418.5,786.4"></path>
		<path id="path2408_1_" class="st0" d="M1424.8,720.9c-2.2,3.3-0.4,6.1,3.5,4.9c0.6-0.4,1.3-0.7,1.9-1c0.7,0.2,1.5,0.2,2.3,0.2		c1.4-0.7,3.9-0.1,4.6-2c-1,0.1-1.7-0.4-1.9-1.4C1433.4,723.9,1427.3,720,1424.8,720.9"></path>
		<path id="path2414_1_" class="st0" d="M1438.5,652.7c-1.3-0.3-1.5,0.1-0.4,1.3C1438.2,653.5,1438.4,653.1,1438.5,652.7"></path>
		<path id="path2416_1_" class="st0" d="M1441.6,643.4c0.8-1.6-1.2-6.7-3.3-4.5C1440.4,639.5,1439.5,642.6,1441.6,643.4"></path>
		<path id="path2418_1_" class="st0" d="M1438.3,722.8c-1.8,1.9,2.9,2,3.8,2.1c2.5,0,6.2,0.4,8.1-1.5		C1446.3,722.8,1442.1,724.2,1438.3,722.8"></path>
		<path id="path2422_1_" class="st0" d="M1445.6,725.8c-2.8,0.6-0.2,6.9,1.2,7.9C1447.4,732.6,1446.3,726.8,1445.6,725.8"></path>
		<path id="path2424_1_" class="st0" d="M1455,754.5c1.8-0.9,5.9-1.6,7-3.4c1.5-2.3,0.6-4-1.7-4.5c1.9-2.1-2.2-3.4-3.7-3.8		c-2.7-0.7-5,0.2-7.7,0.5c-3.2,0.4-3.9,2-2.4,5.1C1448.1,751.6,1451.9,752.9,1455,754.5"></path>
		<path id="path2426_1_" class="st0" d="M1455.8,636.6c0.4-1,0.1-2.1-0.8-2.7C1455.2,634.8,1455.5,635.7,1455.8,636.6"></path>
		<path id="path2428_1_" class="st0" d="M1456.4,633.7c1.5-1.5,1.9-3.7,1.7-5.7c-0.1-1-0.8-3.9-1.9-1.6c-0.7,1.6,1.1,2.9,0.5,4.2		C1456.1,631.7,1455,632.6,1456.4,633.7"></path>
		<path id="path2432_1_" class="st0" d="M1463.4,699.4c-1.6-0.7-2.9,2.9-1.8,3.9C1463.5,704.9,1463.6,700.4,1463.4,699.4"></path>
		<path id="path2434_1_" class="st0" d="M1463.4,704.7c-1.5,0.8-0.7,3.2,1.1,2.7C1464.3,706.4,1463.9,705.5,1463.4,704.7"></path>
		<path id="path2438_1_" class="st0" d="M1464.6,682c-0.4,0.6-0.2,0.9,0.4,1.4C1464.8,683,1464.7,682.5,1464.6,682"></path>
		<path id="path2440_1_" class="st0" d="M1467.4,700c-0.4,0.6-0.8,1.1-1.3,1.7c-0.4-0.4-0.9-0.9-1.3-1.3c-1.2,3.6,0.6,2.3,1.7,4.8		c0.3,0.6-1.4,2.9,0.4,2.5c1-0.2,2-0.8,2.3,0.5c0.4,1.4,5.5-1,1.2-2.2c-1.8-0.5-2.2-1.5-1.2-3C1469.8,702,1467.9,700.6,1467.4,700"></path>
		<path id="path2442_1_" class="st0" d="M1465.5,689.5c-0.3,0.6-0.6,0.4,0,1.3C1465.5,690.3,1465.5,689.9,1465.5,689.5"></path>
		<path id="path2444_1_" class="st0" d="M1466.3,717.4c-2,1.5-0.9,4.3,1.4,4.6c1,0.1,1.9-0.6,2.9-0.6c1.1,0,2.1,0.3,3.2,0.4		c3.7,0.2,0.1-3.3-1-3.9C1470.4,716.7,1468.7,715.5,1466.3,717.4"></path>
		<path id="path2446_1_" class="st0" d="M1466,683.8c-0.3,0-0.6-0.1-0.9-0.1c0.2,0.5,0.5,1,0.9,1.4C1466,684.7,1466,684.3,1466,683.8		"></path>
		<path id="path2452_1_" class="st0" d="M1469.4,695.2c0.1,1.6-0.5,3.3,0.6,4.7c1.1,1.3,2.3,2,2.9,3.7c0.7,1.9,4.2,5.9,5.8,4.9		c-4.7-4.8-5.3-10.5-6.2-16.7c-0.4-2.7-0.3-4.8,3-3.2c2.8,1.4,6.9,2.3,10,2.6c-2-1-2-3.4-3.6-4.6c-1.6-1.3-6.1-1.1-4.2-4.3		c1.3-2.2,4.8-2.3,5.4-5c0.4-1.8-0.9-4.9-0.1-6.3c-3.3-0.8-6.9,2.4-8.2,5.1c3.1,0.1,0.1,1.7-0.8,2.1c-1.9,0.7-1,2.7-1.9,4.1		c-0.9,1.4-2.8,0-3.4-1c-1-1.7,1.1-2.8,2.2-3.5c2.3-1.5,3.9-6.3,2.6-9c-0.6-1.2-2.5-1.6-2-3.1s2.6-2.4,2-4.2c-3.1,0-4.7,4-5.5,6.4		c-0.8,2.6-2.8,7.2-2.3,9.8c0.2,1.3,0.8,2.6,1.5,3.6c0.3,0.5,0.7,0.9,1.2,1.1c-0.9,1.1-1.2,2.4-1,3.7c0.2,1.8,0.8,2.8,1.9,4.1		C1470.3,691.5,1469.6,693.7,1469.4,695.2"></path>
		<path id="path2454_1_" class="st0" d="M1467.8,713.4c-0.5,0.3-0.9,0.7-1.4,1c1,0.1,1.9,0,2.7-0.5		C1468.7,713.8,1468.3,713.6,1467.8,713.4"></path>
		<path id="path2456_1_" class="st0" d="M1467.2,745.7c-0.8,1.1-0.4,1.5,1,1.3C1467.9,746.6,1467.6,746.1,1467.2,745.7"></path>
		<path id="path2458_1_" class="st0" d="M1469.1,744c-0.3,0.5-0.4,1-0.4,1.5c0.5,0,1-0.1,1.4-0.3		C1469.9,744.9,1469.5,744.4,1469.1,744"></path>
		<path id="path2462_1_" class="st0" d="M1472.5,740.3c-0.4,0.7-0.8,1.3-1.3,1.9C1472.2,742,1472.7,741.3,1472.5,740.3"></path>
		<path id="path2464_1_" class="st0" d="M1500.2,748.9c2.9,1.7,5.9,2.8,8.6,4.9c3.2,2.4,3.4-1.2,2.8-3.6c-0.3-1.5-2.3-1.9-2.6-3.3		c-0.3-1.4-0.3-3.1-1.8-3.9c-1.3-0.8-1.8-1.8-3.6-1.5c-1.7,0.3-3.4,0.1-4.8-1s-3.1-1.9-4.9-1.9c-1.8,0.1-2.6,1.5-4.2,1.9		c-1.4,0.3-1.9-0.4-2.7-1.3c-0.3-0.3-4.6,0.2-5.3,0.2c-6-0.4-12.3,3.8-9.8,10.5c0-1.4,1.9-6.9,3.8-6.4c-0.6,1.8,2.6,4.7,4.2,5		c0.6,0.1,7.8-5.9,6.1-1.3c1.1-0.2,7.8,2.4,8.2,0.1C1494.7,745.3,1499.8,746.9,1500.2,748.9"></path>
		<path id="path2466_1_" class="st0" d="M1473.3,750.7c-1,0.5-1.7,1.5-1.4,2.7c1.5-0.2,2.5-1.4,3.9-1.8c-1.2,2.3,1.9,0.1,1.5-2.1		C1475.8,749.7,1474.8,751,1473.3,750.7"></path>
		<path id="path2468_1_" class="st0" d="M1475.1,659.8c0.4-0.6,0.7-0.4,0.2-1.3C1475.2,658.9,1475.2,659.3,1475.1,659.8"></path>
		<path id="path2470_1_" class="st0" d="M1477,664c4.9-1.1,6.8-5.2,4.1-9.5c-0.6,1.4-2.2,1.7-3.2,2.8C1476.2,659.1,1476,662,1477,664		"></path>
		<path id="path2474_1_" class="st0" d="M1479,749.6c-0.4,0.5-0.4,1-0.1,1.6c0.5-0.3,1-0.6,1.4-1		C1479.8,749.9,1479.4,749.7,1479,749.6"></path>
		<path id="path2478_1_" class="st0" d="M1480.9,749.2c-0.5,1.3,0.6,2.5,2,1.8C1482.7,750,1481.9,749.2,1480.9,749.2"></path>
		<path id="path2482_1_" class="st0" d="M1492.1,695.2c0.7,1.2,1.7,2.1,3,2.6C1494.1,696.8,1493.2,695.7,1492.1,695.2"></path>
		<path id="path2484_1_" class="st0" d="M1500.8,726.4c0.9,0.3,1.8,0.5,2.7,0.6c1,0,1.5-0.9,2.6-0.8c-1-1.4,1.1-2.1,0-4.3		c-1.2-2.3-6.3,1.5-8.4,1.8C1498.1,725.3,1499.4,726.4,1500.8,726.4"></path>
		<path id="path2486_1_" class="st0" d="M1499.4,712.9c-0.5,0.3-1,0.6-1.4,1C1499.2,714.6,1499.6,714.3,1499.4,712.9"></path>
		<path id="path2488_1_" class="st0" d="M1502.5,695.3c0.2,0.4,0.4,0.9,0.6,1.3C1503.3,695.5,1503,695.8,1502.5,695.3"></path>
		<path id="path2490_1_" class="st0" d="M1510.9,702c5.4,1.5,0-3.7-1.2-4.9c1.5-0.2,2.5,1.4,3.4,2.4c1.5,1.8,1.9,0.3,3.4,1		c2.8,1.4,3-2.6,1-3.7c-1.9-1.1-12-2.6-12.2,1.2c2.6-1.7,1.2,1.1-0.4,0.5c1.2,1.6,4,0.5,3.5,3.3c0.1-1,0.8-1.7,1.8-1.9		C1510.5,700.6,1510.7,701.3,1510.9,702"></path>
		<path id="path2494_1_" class="st0" d="M1507.2,708c-0.5,2.4,6.1,1.6,5.4-0.9C1511.2,708.6,1508.9,707.5,1507.2,708"></path>
		<path id="path2496_1_" class="st0" d="M1509.7,701.7c-0.8,0.3-1.4,0.8-1.8,1.5C1509,703.9,1511.5,702.5,1509.7,701.7"></path>
		<path id="path2500_1_" class="st0" d="M1513.4,709c-4.9,0.8-2.9,4.2-0.3,6.8C1514.6,717.4,1517.6,709.9,1513.4,709"></path>
		<path id="path2506_1_" class="st0" d="M1516.6,710.6c-0.4,0.6-0.8,0.3-0.5,1.3C1516.3,711.4,1516.4,711,1516.6,710.6"></path>
		<path id="path2508_1_" class="st0" d="M1518,758.2c0.3,0.8,0.3,1.1,1.2,1.3C1518.8,759.1,1518.4,758.6,1518,758.2"></path>
		<path id="path2510_1_" class="st0" d="M1519.6,756.5c-1.1-0.2-1,0.3,0.5,1.3C1519.9,757.4,1519.7,756.9,1519.6,756.5"></path>
		<path id="path2522_1_" class="st0" d="M1545.7,758.7c-0.4,1.8,3.1,2.2,4,3.1C1548.7,760.4,1546.8,760.1,1545.7,758.7"></path>
		<path id="path2392_1_" class="st0" d="M1413.3,849.8c0.8,0.5,0.7,1.1,1.7,0.6c0.5,1.9-3,2.5-3.1,5c1.5-0.5,3.1-0.1,4.6-0.4		c2-0.4,3.4-2.6,5.4-2.6c3.3-0.1,4.4-1,6.4-3.5c1.3-1.6,3.5-3.6,4-5.6c0.7-3-1-0.6,1.6-1.5l1.5-6.8l-3.1-2.3c-5.2,2.2-1,3.4-7.2,4.6		c-1.5,0.3,0,4.7-1,5.4c-1.1,0.7-1.5-1.7-2.2-0.6c-0.7,1-3.6-2.6-4-1.4S1413.7,848.4,1413.3,849.8"></path>
		<path id="path2346_1_" class="st0" d="M1352,821c-0.9,0.4-1.1,1-0.8,1.9C1352.4,822.8,1352.6,821.9,1352,821"></path>
		<path id="path2278_1_" class="st0" d="M1162.8,796.3c-0.5,0.2-1,0.6-1.3,1C1162.7,798,1163.2,797.6,1162.8,796.3"></path>
		<path id="path2280_1_" class="st0" d="M1182.7,788.9c-1.2-0.9-7-1.9-8-0.9c-0.3-3.6-3.5,1.1-3.9,2.3s-0.1,7.1-2.8,4.8		c-0.3,1.9-1.4,3.5-2,5.3c-0.9-1.8-2.5-1.3-3.8-0.5c4.3,2,9-0.4,13,2.2c1.2,0.8,2.9,0.9,4.2,1.5c2.1,1-0.6,2.5-0.9,3.9		c-0.6,3.8,10.4,3.1,12.4,3.5c4,0.7,7.4,3.6,11.4,4.6c1.3,0.3,3,0.7,4.2,0.1c1.3-0.7,0.9-1.8,2.7-1.9c4.7-0.1,9.6,1,14.2,2.4		c5.6,1.8,11.1,4.7,16.8,6c2.4,0.5,5.7,0,7.8,1.1c2.2,1,4,0.1,6.4,0.3c4.8,0.5,10.4,3.4,14.6,0.4c3.4-2.5,7.9,2,11.1,3.6		c1.1,0.5,7.5,0.9,7.4,1.7c-0.1,1.3,1.9,2.1,3,1.6c0.8-0.4-1.5-3.1-1.8-3.5c-2.4-3.3,0-6.6,0.1-10c0-2.1-2.1-2.6-3.7-3		c-2.7-0.8-3.5,0.3-6,0.1c-2.4-0.2-5.5,1.5-7.6,0.5c-1.3-0.6-5.1-1.9-5.8-3.3c-0.6-1.2,1.2-7-1.6-4.4c0.5-1.9-1.3-3.7-1.3-5.7		c-1.7,0.9-4,0.3-5.9,0.5c-0.7-0.1-1.4-0.4-1.9-1c-1.4-1.1-2.6-0.3-4.1-1c-0.7-0.4-2.2-3.4-3.3-1.9c-1.1,1.5-3.6,1.2-4.7-0.5		c-2.5-4-5.2-4.5-6.8,0.5c-0.5,1.7-1.3,5.4-3.9,4.6c-1.5-0.5-1.8-1.2-3.4-1.1c-1.3,0.1-2.6,0.4-3.9,0.1c-2.6-0.6-3.6-0.4-6-0.3		c-1.4,0.1-3.8-1.8-5-1.1c-4.9,2.8-6.5-4.4-8.6-7.1c-1.9-2.5-1.5-0.2-3.1-0.2c-1.9,0-3.7-2.7-5.6-1.8c-1.8,0.9-3.2-1.5-4.4-2.5		c-2-1.6-3.4-0.9-5.5-2.2C1186.3,788.6,1184.7,791,1182.7,788.9"></path>
		<path id="path2296_1_" class="st0" d="M1211.7,814c0.2,1.4,1.9,1.2,2.8,1.3C1213.6,814.7,1212.7,814.3,1211.7,814"></path>
		<path id="path2308_1_" class="st0" d="M1267.7,801.8c-1.3-0.2-4.5,2.4-2.8,3.7c1.6,1.2,5.1,2.3,5.2,0.2c2.3,2.5,4.9,1.1,7.3,0.2		c1-0.4,2.1-0.7,3.2-0.4c-0.4-1.7,1.6-1.7,2.7-2.1c-0.6-2.6-4.1-2-5.8-1.7C1274.3,802.1,1270.8,801,1267.7,801.8"></path>
		<path id="path2310_1_" class="st0" d="M1264.2,783.8c-1,0.2-1.2,0.9-0.8,1.8C1264.6,785.6,1264.8,784.8,1264.2,783.8"></path>
		<path id="path2312_1_" class="st0" d="M1286.6,804.4c0.2,1,0,1.4,1.3,1.4C1287.5,805.3,1287,804.8,1286.6,804.4"></path>
		<path id="path2314_1_" class="st0" d="M1288.9,820.3c-1.4,3.2,2.9,4.7,5.2,5.8c1.4,0.7,2.6,1.3,3.6,2.5c1.8,2.2-0.3,1.6-0.3,3.2		c0,1,3.9-3.7,4.1-3.8c1.7-0.6,6-2.3,3.6-4.7c-1.7-1.7-5-4-7.3-2.7C1295.1,822.2,1291.7,822.2,1288.9,820.3"></path>
		<path id="path2316_1_" class="st0" d="M1289.3,805.5c0.4,0.3,0.8,0.3,1.3,0C1290.1,805.5,1289.7,805.5,1289.3,805.5"></path>
		<path id="path2318_1_" class="st0" d="M1299.8,800.9c-1,0.6-1.2,1.6-0.2,2.4c0.9-1.2,2.5-1.4,4-0.8		C1302.8,801,1301.2,801,1299.8,800.9"></path>
		<path id="path2320_1_" class="st0" d="M1304.2,831.4c0.4-0.7,0.3-1.4-0.2-2.1c-0.5,0.3-0.9,0.7-1.2,1.2		C1303.3,830.8,1303.7,831.1,1304.2,831.4"></path>
		<path id="path2322_1_" class="st0" d="M1314.4,822.3c-1.8,0.9-4,2.7-3.6,5c0.3,1.9-0.1,4.9-2.7,3c-1.8,3.1,8.5,2.2,9,2.7		c-1-1.9,1.5-5.5,2.3-7C1320.6,823.6,1316.1,821.6,1314.4,822.3"></path>
		<path id="path2328_1_" class="st0" d="M1335.8,833.2c2.7-1.4,5.4-1.9,6.7-4.9c0.7,1-0.5,3,0.5,3.6c1.1,0.6,1.9,0.2,2.9-0.3		c1.2-0.5,2.3,0.2,3.6,0.4c-0.7-0.9-1.6-1.3-2.7-1.4c2.4-1.5,6.1,1.3,6.5-2.7c-2,2.8-2.1-2.4-2.8-3.4c-1.5-2.6-4,0.1-3.8,2		c-0.5-1.9-2.3-5.2-4.3-2.8c-1.5,1.8-3.2-1.8-4.1-2.7c-1.4-1.4-6.4-0.3-4.8,2c2,2.8,4.5,3.5,7.4,5.1c-0.8,1.2-3.1,1.8-4.4,2.1		c-2.3,0.5-2.7-1.6-3.8-3.1c-2.5-3.4-9.5-2.2-11.7,0.5c-1,1.3,0.3,3.3-0.7,4.6c-1.3,1.8,1.3,3.2,2.8,3.6c0.9,0.2,1.7,0.3,2.4-0.3		c1.3-1.1,1.3-0.4,3.1-0.4C1331.3,834.9,1333.2,832.4,1335.8,833.2"></path>
		<path id="path2330_1_" class="st0" d="M1330.7,825c0.8-1.1,1.2-2.4,1.9-3.6C1329.8,820.1,1330.3,823.3,1330.7,825"></path>
		<path id="path2342_1_" class="st0" d="M1350,842.7c1.5,3.2,4.4,3.1,7.4,3.4c3.5,0.4,6.4,3.5,8.7,6c4.2,4.6,12.8,0.4,7.8-4.7		c-1.6-1.6-2.8-2.9-4.9-2.9c0.1,0-3.7-4.1-4.1-4.5c-0.3-0.3-6.1-0.2-6.3,0C1355.9,841.7,1351.9,838.9,1350,842.7"></path>
		<path id="path2350_1_" class="st0" d="M1357,825.6c-0.6,1.2-1.4,2.6-0.1,3.9C1356.8,827.7,1360.2,826.8,1357,825.6"></path>
		<path id="path2352_1_" class="st0" d="M1359.3,828.2c0.4,1,0.4,2-0.2,2.8c1.8,0.4,1.3-1.6,1.6-2.6		C1360.3,828.3,1359.8,828.3,1359.3,828.2"></path>
		<path id="path2354_1_" class="st0" d="M1364.4,831.5c1.3-0.7,4,0.1,5.6-0.1c1.5-0.2,3.7,0.2,5.2,0.5c1.6,0.3,2.6,2.1,4.4,1.3		c1.2-0.6,4.3,0.5,3.6-1.9c4.1,1.7,5.8,0.6,9.5-0.8c2.5-0.9,11.7,0.3,9.9-4.8c1.8,0.3,1.4-1.9,3.1-1.9c-0.9-2.1-3.4-5.3-3.7-1.2		c0.8-0.5,1.6-0.6,2.6-0.3c-1.6,2.1-4.8,2.2-6,4.7c-1.4,3.1-4.3,1-6.2-0.6c-1.8-1.5-3.6,1-5.4,0.3c-1-0.4-0.8,0.4-1.4,0.9		c-0.8,0.9-2.7-0.6-3.4-1.1c-2.4-1.6-6-2.6-8.7-3.2c-4.2-1-5.5,0.6-8.8,2.3c-1.7,0.9-2.8,0.8-2.8,3.3		C1361.9,830.1,1362.7,833.8,1364.4,831.5"></path>
		<path id="path2356_1_" class="st0" d="M1370.7,784.7c-2.2,0.7-0.6,8.9,0,10.5C1370.8,791.7,1371.4,788.3,1370.7,784.7"></path>
		<path id="path2358_1_" class="st0" d="M1373.1,803.7c-0.3,0.6-0.3,1.3,0.1,1.9c0.5-0.3,0.9-0.6,1.2-1		C1374,804.3,1373.5,804,1373.1,803.7"></path>
		<path id="path2360_1_" class="st0" d="M1375.6,807.6c0.4,1.1,2,0.5,2.6,0.3C1377.3,807.9,1376.4,807.8,1375.6,807.6"></path>
		<path id="path2362_1_" class="st0" d="M1385.3,859.2c0.5,0.2,0.9,0.1,1.3-0.3C1386.1,859,1385.7,859.1,1385.3,859.2"></path>
		<path id="path2364_1_" class="st0" d="M1387.9,858.3c-0.1,0.2-0.1,0.4-0.2,0.6c1.1,0.4,2.6,0.1,3.3-0.6c0.4-0.3,0.5-0.7,0.2-1.2		C1390.2,855.4,1388.9,857.7,1387.9,858.3"></path>
		<path id="path2374_1_" class="st0" d="M1403.3,861.6c-0.5,0.8-0.5,1.7,0.1,2.6c2.1-1.2,5.2-3.4,7.6-4c-0.5-0.8-1-1.7-1.4-2.6		C1407.2,858.8,1406,860.7,1403.3,861.6"></path>
		<path id="path2380_1_" class="st0" d="M1404.2,826.9c0.2,0.4,0.3,0.8,0.5,1.1c0.5-1,1.1-1.7,2-2.3		C1405.6,825.7,1404.8,826.1,1404.2,826.9"></path>
		<path id="path2382_1_" class="st0" d="M1406.6,823.3c-0.6,0.5-0.8,1.1-0.7,1.9c1.1-0.1,3.6,0.4,3.9-1.2		C1410.1,822.2,1407.4,822.8,1406.6,823.3"></path>
		<path id="path2384_1_" class="st0" d="M1411.1,852.2c-0.9,0.6-1.4,1.6-1.3,2.7C1411.4,855.2,1411.6,853.5,1411.1,852.2"></path>
		<path id="path2390_1_" class="st0" d="M1410.9,823.2c0.4,0.4,0.7,0.8,1,1.3c-1,0.4-2.5,1.1-2.8,2.3c-0.4,2,3.3,0.5,4.1,1		c-0.5-2.4,3.1-4.4,5-4.8c-2.7-2.8-3.7,0.8-5.4,1.7C1413.5,822.8,1412.2,823,1410.9,823.2"></path>
		<path id="path2402_1_" class="st0" d="M1418.8,824.2c-0.5,0.5-0.7,1.2-0.6,1.9c1.1-0.3,2.1,0.3,2.7,1.3c1-1.1,2.9-3.7,1.4-5.3		C1421.7,823.6,1420.1,823.8,1418.8,824.2"></path>
		<path id="path2406_1_" class="st0" d="M1425.5,821c-0.7,0.8-1.5,3,0.8,1.7c-1.3,0.6-2.4,1.8-2.3,3.3c3.2-0.3,6.8,0,9.7-1.4		c1.8-0.8,1-2.8-0.9-3.1c-1.1-0.2-2,0.3-3.1,0.2C1428.3,821.5,1426.9,820.8,1425.5,821"></path>
		<path id="path2410_1_" class="st0" d="M1441.5,821.2c-1-0.1-1.6,1.6-1.7,2.3C1440.7,823.1,1441.4,822.3,1441.5,821.2"></path>
		<path id="path2420_1_" class="st0" d="M1443.3,819.2c2.5-2.2,5.2-1.7,8.4-1.2c1.7,0.3,3.2-3,5.3-2.9c-3.1-3.5-4.4-2.2-8.4-0.6		c-1.1,0.4-2-0.6-2.9-0.2C1444.1,815,1443.4,817.5,1443.3,819.2"></path>
		<path id="path2430_1_" class="st0" d="M1465.5,811.3c-0.5,0.7-0.7,1.5-0.6,2.3C1466,813.2,1466.5,812.3,1465.5,811.3"></path>
		<path id="path2436_1_" class="st0" d="M1469.1,821.5c-0.2,1.5,0.2,1.6,1.3,0.3C1469.9,821.7,1469.5,821.6,1469.1,821.5"></path>
		<path id="path2450_1_" class="st0" d="M1470.8,820.5c-0.4,2.2,3.9,3,4.2,0.5C1473.6,821.2,1472.2,820.9,1470.8,820.5"></path>
		<path id="path2460_1_" class="st0" d="M1475.2,822.1c0.1,0.4,0.2,0.8,0.2,1.2c0.5-0.3,0.9-0.7,1.2-1.2		C1476.1,822.1,1475.6,822.1,1475.2,822.1"></path>
		<path id="path2472_1_" class="st0" d="M1481.9,804.5c-0.6,0.3-0.8,0.9-0.8,1.5C1482.5,806.2,1482.8,805.7,1481.9,804.5"></path>
		<path id="path2476_1_" class="st0" d="M1485.3,821.9c0.5,0.9,1.2,1.3,2.2,1.2C1487.2,822,1486.4,821.5,1485.3,821.9"></path>
		<path id="path2480_1_" class="st0" d="M1495.8,815.8c-1.1,1-0.3,3.4,1.4,3.4C1500.4,819.2,1498.7,815.5,1495.8,815.8"></path>
		<path id="path2492_1_" class="st0" d="M1511.5,824.3c2.1-0.7,3.9-2,5.5-3.4C1514.9,821.8,1512.6,821.6,1511.5,824.3"></path>
		<path id="path2498_1_" class="st0" d="M1512.7,811.2c-0.1,1.1,0.3,1.1,1.3,0.1C1513.6,811.3,1513.2,811.2,1512.7,811.2"></path>
		<path id="path2502_1_" class="st0" d="M1514.9,809.9c-0.2,0.3-0.4,0.7-0.5,1c1.1,0.3,1.7-0.1,1.8-1.2		C1515.8,809.8,1515.4,809.9,1514.9,809.9"></path>
		<path id="path2504_1_" class="st0" d="M1523.2,805.3c-2.1,0.1-7.5,7.2-5.3,9.1c-4.3-1.9-0.5,8.5,1.2,3.7c0.8-2.1,3-3.2,4-5.2		c0.8-1.7-0.6-5.5,1.4-6.2C1524.1,806.2,1523.7,805.7,1523.2,805.3"></path>
		<path id="path2512_1_" class="st0" d="M1524.6,805.3c0.8,1.1,2.3,0.8,3.3,1.8C1527.7,805.3,1525.9,805.2,1524.6,805.3"></path>
		<path id="path2516_1_" class="st0" d="M1537.8,783c-0.3-0.4-0.8-0.5-1.3-0.4c0.6,0.9-0.1,3.8,1.2,4.2		C1539.6,787.4,1538.2,783.7,1537.8,783"></path>
		<path id="path2518_1_" class="st0" d="M1538.7,781.5c-1.1-0.2-1.2,0.2,0,1.3C1538.7,782.3,1538.7,781.9,1538.7,781.5"></path>
		<path id="path2520_1_" class="st0" d="M1539.1,788c2.2-1.7,4.1-7.8,4.8-10.5c-1.9,0.7-1.6,2.6-2.1,4.2		C1541,783.9,1539.7,785.6,1539.1,788"></path>
		<path id="path2524_1_" class="st0" d="M1556.7,790.6c-0.3,1.6-0.4,3.7,1,5c-2.6-0.1-2.8,7.6,1.3,5.6		C1564.3,798.5,1560.3,793.2,1556.7,790.6"></path>
		<path id="path2534_1_" class="st0" d="M1564.8,797.2c-0.9,0.6-0.9,1.8-0.4,2.7C1565,799.1,1565.1,798.2,1564.8,797.2"></path>
		<path id="path2536_1_" class="st0" d="M1564.6,795c-1.1,0.7-0.9,1.1,0.6,1.3C1565,795.8,1564.8,795.4,1564.6,795"></path>
		<path id="path2538_1_" class="st0" d="M1566.4,795.2C1567.6,790.6,1565.2,793.7,1566.4,795.2"></path>
		<path id="path2230_1_" class="st0" d="M1123.3,780.1c0.3-1.7-2.3-3.7-3.6-2.1C1121,778.6,1121.6,780.7,1123.3,780.1"></path>
		<path id="path2202_1_" class="st0" d="M1026.7,605.6c1.9,0.6,1-1.9-0.8-1.3C1026.2,604.7,1026.4,605.2,1026.7,605.6"></path>
		<path id="path2204_1_" class="st0" d="M1056.9,614c-1.2,0.7-2.7,1.7-4.1,1.3c-1.3-0.4-1.6-1.6-3.2-1.6c-2.5-0.1-4.8,1.2-7.4,1		c-3.1-0.3-5-1.3-6.9-3.6c-1.4-1.7-5.5-4.1-7.8-2.5c-8.7,5.9,11.1,22.4,14.2,26.7c1.2,1.6,2.8,1.7,4.7,2.1c3.1,0.6,4,4,5.3,6.3		c1,1.8,3.1,6.1,4.9,6.9c3.2,1.4,1.9,4.5,2.7,7.5c0.8,2.7,3.6,2.1,5.7,3.5c1.3,0.9,2.6,1.9,3.9,2.9c1.6,1.2,3.3,2.4,4.7,3.8		c2,2,0.1,2.2,0.7,4.5c0.7,2.7,1.9,5.3,2.7,8c0.8,2.9,2.9,5.9,2.7,8.9c-0.2,3.2,2.3,1.2,3.5,2.7c2,2.4,4.9,1.8,5.5,5.7		c0.7,5,7.4,8.3,8.5,13.6c0.2,0.8-1.1,0.8-0.5,1.7c0.8,1.1,1.5,2.3,2.2,3.5c1.4,2.8,4.3,6.4,4.4,9.5c0.1,3,0,5,1.9,7.6		c1.4,2,3.6,3.4,4.8,5.5c1.4,2.5,2.2,5.1,4.4,7.1c2.2,2,5.3,3.3,6.8,6.2c1.5,2.8,1.3,4.4,4,6.5s5.1,4.6,7.7,6.8		c2.2,2,4.4,3.8,7.1,5.2c2.6,1.3,3,2.3,4.4,4.6c0.7,1.2,1.7,2.4,2.6,3.5c0.8,0.8,1.6,1.5,2.5,2.2c0.6,0.5-0.1,1,0.6,1.5		c0.5,0.3,5,5.9,4.9,3c-0.1-1.7-1.8-3-2-4.8c-0.4-2.4,3.6,0.7,4,1.1c3.3,2.8,6.5,2.9,5.8-2.5c2.1,1.7,3.6,5.2,6.5,5.8		c1.7,0.3,1.4-4.8,1.4-5.7c0-3.3,0.3-6.7,0.4-10c0-1.8,1.1-4.3,0.2-6c-0.7-1.3-1.1-2.1-0.8-3.5c0.4-1.7,1.7-4,1.4-5.9		c-0.2-1.4-1.8-1.4-1.5-3.3c0.3-1.6,1.3-3,2.1-4.4c0.9-1.5,1.5-2.1,1.2-4c-0.3-1.8-1.8-1-2.8-2.1c-1.4-1.4-3.5-6.1-2.7-8		c-1.6-0.3-9-2.2-9.7-0.6c-0.2-0.5-0.5-0.9-0.6-1.4c-1.6,2-1.8,4.9-4.2,6.3c0.7-1,4-4.6,0.8-4.6c1.7-0.7,3.8-2.2,3.5-4.4		c-0.2-1.6-1.9-1-2.9-1.7c-1-0.6-1.6-3.3-1.8-4.3c-0.7-3-1.4-5.9-1.8-9c-0.2-1.9-5.8-2.1-7.4-1.7c-1.3,0.3-3.8-2.2-4.7-3		c-1.6-1.3-1-4.1-1.7-6c0.7,0.9,1.8,1,2.7,0.4c-0.4-1.5-1.8-1.7-3.1-1.8c1-0.1,1.8-0.8,2.1-1.8c-0.9-0.1-1.7,0-2.6,0.3		c1.5-0.4,2.4-1.8,3.5-2.8c0.9-0.8,3.1-0.5,3.6-1.4c0.9-1.4-2.3-4.5-3.1-5.5c-2.3-2.6-4-2.3-6.6-0.5c-2,1.4-7.2,5.1-9.4,2.2		c4.6,2.6,13.3-5.5,5-7.3c-1.3-0.3-2.7,0.3-4-0.3c-1.5-0.6-2.1-2.3-3.3-3.2c-2.4-1.9-1.1-5.9-3.8-8c-1-0.8-2-1.9-3.1-2.5		c-1.1-0.7-2.6-0.1-3.9-0.7c-2-1.1-1.9-4.2-3.2-6c-0.6-0.9-5.1-5.3-6.2-2.7c-0.8,2,1.5,4.5,1.8,6.5c-0.8-0.9-1.1-2-1.7-3		c-1.1-1.6-3.1-1.8-4.4-3.1c-2.2-2.1-2.3-5.5-4.4-7.7c-0.6,0.8-0.8,1.7-0.5,2.7c-0.3-0.6-2.4-5-1.8-1.5c-1.4-1.7,0.8-3.7-1.3-5.2		c-1.9-1.3-3.4-3.6-5.3-5c-2.2-1.7-3.9-4.4-6.5-5.5c-0.9-0.4-1.9-0.6-2.8-1c-1.6-0.7-1.3-1.9-2.3-3c-1.3-1.4-3.7-1.5-5-2.8		c-1.7-1.7,0.7-4.5-1.1-6c-2.2-1.8-2.6-1.8-3.5-4.7C1062.7,618.9,1058.7,615.7,1056.9,614"></path>
		<path id="path2208_1_" class="st0" d="M1059.7,685.6c2.7,2.9,3.6-5.1,2.4-6.7c-1.4-1.9-3.7-5.5-5.9-6.4c-1.6-0.7-2.6,1.6-4.3,0.6		c0.3,2.4,2.4,4.2,3.5,6.2c0.6,1.3,2.1,1.7,2.9,2.9C1058.9,683.2,1059.1,684.5,1059.7,685.6"></path>
		<path id="path2210_1_" class="st0" d="M1054.6,663.5c0-1.3-0.9-3.4-2.5-2.2C1053.1,661.9,1053.9,662.6,1054.6,663.5"></path>
		<path id="path2212_1_" class="st0" d="M1070.8,702.5c0.3-1.1-0.1-2.3-1-3c-0.7,1-1.2,2.5-1.5,3.6		C1067.9,704.7,1071.4,704.7,1070.8,702.5"></path>
		<path id="path2214_1_" class="st0" d="M1068.5,695.2c0.7,1.9,1.7,3.7,2.7,5.4C1071.6,699.1,1070.5,694.9,1068.5,695.2"></path>
		<path id="path2216_1_" class="st0" d="M1071.6,670.1c0.2-1-0.2-1-1.3,0C1070.7,670.1,1071.2,670.1,1071.6,670.1"></path>
		<path id="path2218_1_" class="st0" d="M1075,693.7c-0.4-1.7-3-1.4-4-0.5C1072.2,694,1073.7,694.1,1075,693.7"></path>
		<path id="path2220_1_" class="st0" d="M1079.2,723.1c5.3-0.8-3-11.2-2.9-13.6c-0.9,0.5-2.4,0.2-3,1.1c-0.9,1.3-1.4,3.7-0.5,5		C1074.6,718.1,1075.7,722.3,1079.2,723.1"></path>
		<path id="path2222_1_" class="st0" d="M1089.1,731.9c-0.3-1.4-2.1-6.2-4-4.9C1083,728.4,1088.1,731.4,1089.1,731.9"></path>
		<path id="path2224_1_" class="st0" d="M1090.9,738.1c0.4,1.5,2.2,0.8,2.7-0.2c0.8-1.4-1.9-3.6-2.9-4.2		C1090.2,735.2,1091.2,736.6,1090.9,738.1"></path>
		<path id="path2226_1_" class="st0" d="M1097,746.7c0-1-0.9-1.7-0.7-2.7c0.2-1.2,1-1,0.6-2.2c-0.3-0.9-1.4-3.7-2.8-3.2		C1092,739.4,1096,745.9,1097,746.7"></path>
		<path id="path2228_1_" class="st0" d="M1115.2,665.2c-0.5-2.5-4-3.3-5-0.6c-0.5,1.5,0.5,3.7,2.2,4.1		C1114.4,669.1,1114.5,666.4,1115.2,665.2"></path>
		<path id="path2232_1_" class="st0" d="M1124.7,671.9c-1.9-0.8-4.1-0.7-5.9-1.8c-0.3,1.9,1.3,2.7,2.8,3s2.4,1.7,3.5,2.6		C1125.1,674.4,1125.2,673.1,1124.7,671.9"></path>
		<path id="path2234_1_" class="st0" d="M1125,676.6c-0.8-1.3-2-2.8-3.6-3.1c-0.4,2.3-0.2,6.6,2.9,7.1		C1124.7,679.3,1124.5,677.9,1125,676.6"></path>
		<path id="path2236_1_" class="st0" d="M1132.9,683.1c-0.9-1.7-2.6-2.8-4.4-3.4c-1-0.3-1.9-1.7-2.6-1.9c-0.8-0.1-1.4,4.1-0.5,4.7		c2.1,1.4,5.2,0,7.3,1.8C1132.7,683.9,1132.8,683.5,1132.9,683.1"></path>
		<path id="path2238_1_" class="st0" d="M1134.4,682c-0.6-2.2-7.6-6.5-6.6-2.6C1130.5,678.2,1131.7,682.9,1134.4,682"></path>
		<path id="path2240_1_" class="st0" d="M1136.3,686.1c-0.2-0.9-0.8-1.4-1.7-1.6c-0.6,1-0.5,1.8,0.4,2.6		C1135.4,686.9,1135.9,686.5,1136.3,686.1"></path>
		<path id="path2242_1_" class="st0" d="M1138,679.3c-0.4-0.5-0.8-0.9-1.4-1.2C1136.5,679.3,1137,679.7,1138,679.3"></path>
		<path id="path2244_1_" class="st0" d="M1139.1,683.8c-0.3-1-1.1-1.7-2.2-1.3c0,1.1,0.7,2,1.6,2.6		C1138.6,684.7,1138.9,684.3,1139.1,683.8"></path>
		<path id="path2248_1_" class="st0" d="M1142.1,699.4c-0.9-0.6-4.4-0.3-3,1.4C1140,701.8,1142,700.4,1142.1,699.4"></path>
		<path id="path2252_1_" class="st0" d="M1145,680.9c0.4-1.3-0.1-1.6-1.4-0.8C1144,680.3,1144.5,680.6,1145,680.9"></path>
		<path id="path2256_1_" class="st0" d="M1147.8,677.6c-0.9-2.1-2.7,0.3-2.7,1.6C1145.1,680.7,1148,679.1,1147.8,677.6"></path>
		<path id="path2258_1_" class="st0" d="M1148.2,682.9c0.7-1.3,0.4-1.7-1-1.3C1147.5,682.1,1147.9,682.5,1148.2,682.9"></path>
		<path id="path2262_1_" class="st0" d="M1154.9,679.3c-1.9-4.5-7-0.3-4.8,0.5c1.4,0.5,2.1-0.8,2.5,1.5		C1153,683.8,1154.9,680.3,1154.9,679.3"></path>
		<path id="path2264_1_" class="st0" d="M1149.6,684.3c0-0.5-0.1-1-0.4-1.4C1149.4,683.4,1149.5,683.9,1149.6,684.3"></path>
		<path id="path2266_1_" class="st0" d="M1152.5,700.6c-0.6,0.5-1.8,0.7-2.6,1c-1.4,0.5,1,3.3,1.2,4c0.1-1.3,0.7-1.7,1.8-0.9		C1153.3,703.1,1154.4,701.6,1152.5,700.6"></path>
		<path id="path2268_1_" class="st0" d="M1151.7,692.7c-0.7,0.8-0.4,1.3,0.9,1.4C1152.3,693.6,1152,693.2,1151.7,692.7"></path>
		<path id="path2270_1_" class="st0" d="M1153,695.2c0.2,0.9-1.4,4.3,0.5,4.1c1.1-0.1,1.7-0.7,2.8-0.2c1.1,0.6,2.1,1.5,3.4,0.8		C1159,698.7,1154.3,695,1153,695.2"></path>
		<path id="path2272_1_" class="st0" d="M1154.2,683.3c-0.4,0-0.9,0.1-1.3,0.3C1153.4,683.5,1153.8,683.4,1154.2,683.3"></path>
		<path id="path2274_1_" class="st0" d="M1153.5,691.9c-0.6,1.3,1.3,2.3,2.1,2.7C1154.9,693.7,1154.2,692.8,1153.5,691.9"></path>
		<path id="path2282_1_" class="st0" d="M1164.3,721.8c1.5,2.1-2.3,3-3.1,4.4c1.6,1.3,2.8,2.3,4.9,1.5c1.4-0.5,3.8,0.7,4.2,2.2		c0.4,1.3,1.4,2.9,1.6,4c0.5,2.6-1,3.7,2,5.4c1.3,0.7,7.1,5.2,8.5,3.9s-0.7-1.8-1.2-2.9c-0.7-1.7,1.3-4.6,2.9-5		c-2-1.2-4.8-0.6-6.7-2.2c-1.7-1.4-2.4-5-2.2-7.1c0.1-1.3-0.8-5.3-1.6-6.3c-2.4-2.9-5.4,0.4-3.2,3.1		C1169.6,722.9,1164.5,715.9,1164.3,721.8"></path>
		<path id="path2286_1_" class="st0" d="M1184.1,740.1c-0.4,0.1-0.8,0.3-1.2,0.4c0.3,1.1,1.1,1.5,2.1,0.9		C1184.7,740.9,1184.4,740.5,1184.1,740.1"></path>
		<path id="path2290_1_" class="st0" d="M1193.1,738.9c-0.6,0.2-1.1,0.6-1.6,1C1192.6,740.4,1193.1,740,1193.1,738.9"></path>
		<path id="path2292_1_" class="st0" d="M1196.3,734.8c-1.7,1.7-2.1,4.7-1.9,7c0.2,2.4,3.8,3.7,3.2,1.1c1.1,0.1,2.7,3,3.7,2		c1.4-1.4,2.9-4.3,2.6-6.4C1203.6,735.4,1198.8,734.3,1196.3,734.8"></path>
		<path id="path2294_1_" class="st0" d="M1201.2,635.7c1.1,0.2,2.1,0.8,2.8,1.7c-1-0.7-1.7-0.1-1.8,1c3.2,0.5,4.2-2.7,3-5.2		C1203.1,629,1200.2,632.4,1201.2,635.7"></path>
		<path id="path2298_1_" class="st0" d="M1209.6,721.8c0.5,0,1.1,0,1.6-0.3C1210.6,721.5,1210.1,721.6,1209.6,721.8"></path>
		<path id="path2302_1_" class="st0" d="M1213.6,719.5c-0.7-0.6-1.5-0.6-2.2,0c0.3,0.5,0.7,0.9,1.2,1.3		C1213,720.4,1213.3,719.9,1213.6,719.5"></path>
		<path id="path2306_1_" class="st0" d="M1224.5,711.2c-2-2.9-6.1,1.6-3.6,4.1C1222.1,714.1,1225.3,713.6,1224.5,711.2"></path>
		<path id="path2324_1_" class="st0" d="M1312.9,746c-4.7-2-2.9,9.9-1.8,11.5c1.1-2,2.5-1.4,2.2-4.2		C1313,751.1,1312.1,748.1,1312.9,746"></path>
		<path id="path2326_1_" class="st0" d="M1315,747.9c-1.5,0.3-1.3,1.8-0.4,2.6C1314.8,749.6,1315,748.8,1315,747.9"></path>
		<path id="path2332_1_" class="st0" d="M1329.2,643.7c-0.3,1.2,0.1,1.3,1.3,0.4C1330,643.9,1329.6,643.8,1329.2,643.7"></path>
		<path id="path2334_1_" class="st0" d="M1330.8,642.1c-0.6,1.2,0.5,2.3,1.6,2.7C1332.5,643.7,1332.6,641.7,1330.8,642.1"></path>
		<path id="path2336_1_" class="st0" d="M1331.6,631.9c-0.1,1.1,0.6,1.9,1.8,1.3C1333.3,632.1,1332.6,631.6,1331.6,631.9"></path>
		<path id="path2338_1_" class="st0" d="M1331,700.9c-0.4,0.4-0.6,0.8-0.5,1.4C1330.6,701.9,1330.8,701.4,1331,700.9"></path>
		<path id="path2340_1_" class="st0" d="M1334,640c0,0.9,0.5,1.5,1.3,1.8C1335.4,640.8,1334.9,640.2,1334,640"></path>
		<path id="path2344_1_" class="st0" d="M1344.4,659.4c0.1,0.9,0.5,1.7,1.2,2.2C1345.3,660.8,1344.9,660.1,1344.4,659.4"></path>
		<path id="path2554_1_" class="st0" d="M1212.7,681.8c1.7-1.1,0.5-2.3,0.9-3.8c0.5-2,3.3-2.1,3.6-4.3c-0.6,1-1.3,1.8-2.2,2.6		c-1.6-2.3,0.4-4.6,1.8-6.3c1-1.1,1.2-2.2,1.7-3.5c0.6-1.7,2.9-2.1,4.2-3.3c-0.3,1.6-2.4,3.5,0,4.5c0.3,0.1,1.2,3.9,1.9,4.6		c2,2.1,5.5,3.8,6.8,6.6c0.5,1.1,2.7,2,3.7,2.5c2,1,4.7-1,6.4-1.8c3.4-1.5,6.6,0.5,10.2,0.1c1.4-0.1,2.7-1.2,4-1.9		c1.9-1,1.3-3.5,2.8-5.1s9.1-3.3,10.3-0.8c1.1,2.4,8.1,4.6,10.3,3.3c1.9-1.2,2.3-3.1,4.9-2.2c1.3,0.4,2.3-0.6,3.4-1		c0.9-0.4,2,0.8,2.9,0.8c-0.5-2.5,4.7-7.9,3.3-9.5c-2.4-2.8,3.3-6.3,5.4-7c-1.2-1.5-3.2-7.1,0.6-7.5c4.8-0.6,1.3-3.5,4.2-6.2		c1.1-1-0.1-5.1,0.1-6.9c0.2-1.6,0.7-3.6,1.5-5.1c0.7-1.2,2-1.8,2.3-3.3c2.5,0.9,3.1,1.4,5.9,0.3c0.9-0.4,3.1,3,3.4-0.5		c1.7,1.7,5,1.3,7.2,1.1c2.8-0.3,4.4,2.8,7.1,2.5c-0.8,0.6-1.7,0.9-2.7,1c0.5,0.4,5.2,4.5,1.9,2.8c0.6,0.5,2.4,0.8,2.7,1.6		c0.3,0.8,0.3,1.6,1.2,1.9c-1.6,2-4.1,0.7-4.7-1.3c0.3,0.9,0.4,1.8,0.3,2.7c-1.4-0.9-3.8-0.8-5.3-0.1c1.8,0.7,2.7,2.6,4.7,3.1		c-0.5,1-0.9,3.2-2.5,2.4c1.2,1.6,3,2.3,4.9,3c-1.6,1.8,1.4,2-1.1,2.3c0.9,0,1.7,0.3,2.4,0.6c-2.6,0.7,0.6,2.1,1.5,3.3		c1.1,1.4,2,2.9,2.8,4.4c1.1,1.9-1.5,5.6-3.7,5.5c1.4,0.5,0.7,1.9,1.8,2.9c1.6,1.3,3.3,2.7,4.9,4c1.4,1,2.2,2.8,3.8,3.3		c2.1,0.8,3.6,2.9,5.1,4.6c0.6,0.7,2.1,0.2,1.1,1.8c-1.3,2.1-3.5,1.1-5.4,2c-3.1,1.5-6.7-2.7-9.1-3.7c1.1,1.6,2,3.7-0.6,3.8		c-2.4,0.1-3.1,3.7-3.7,5.5c-1.6,4.7-2.3,10.2-2,15.1c0.7-0.8,1.5-1.2,2.6-1.3c-0.3,1.1-2,2.3-0.8,2.8c-1.2,0.8-1.2,1.8,0,2.6		c-1.7,0.5-3.5,2.5-4,0.1c-0.5,3.3-6.6,10.3-7.6,3.6c-1.3,2.3,0.9,4.2-1.7,6c-1.2,0.8-0.6,2.2-1.5,3.2c-1,1.2-2.8,1.2-3.7,2.6		c4-1.5,2.7,4.1,0.8,5.5c1,1,3-0.4,3.9,0.6c0.8,1-0.8,4.8-1.4,5.7c-0.7-0.8-1.6-1-2.6-0.6c2.5,2.2-0.7,9.2-2.5,5.6		c-0.5,1.6,0.8,2.9,1.7,4c-3.5,0.6-2.4,6-5.4,7.2c-3.2,1.3-6.4,3.5-9.6,5c-0.9,0.4-7.5,5.1-7.4,2.4c0.1-1.6-0.2-3.4-0.2-5		c0-2.3-1.5-4.2-1-6.6c-2.6,2.6-4.4,1.6-2.6-1.9c-1.2,2-3.8,3.3-3.2-0.3c-0.3,1.9-5.2,6.3-6.7,3.4c-0.5-1,0.9-1.8-0.1-2.8		c-1.8-1.9-3.6,1.6-4.2-1c0.6,3-3.3-2.3-3.6-3.6c0,2.7-2.9,5.7-5.1,6.9c-2.4,1.2-4.5-2.2-6.8-0.5c-0.8,0.6-4,5.3-4.7,2.2		c-0.8-3.7,0.5-7-1.5-10.6c-1.5,4-2.1,2.1-5,2c-1.2,0-2.3,1-3.2,1.6c-1.8,1.2-3,0.1-4.9-0.2c0.6-0.7,1.2-1.3,1.9-1.8		c-1.5,0.2-2,2.2-3.6,1.9c0.7-3.9-3.3-1.7-4.9-0.5c-1.9-2.3-0.4-6.2-1.2-8.9c-0.6-1.8-0.2-3.8-0.6-5.6c-0.3-1.6-2.8-2.8-2.6-4.2		c0-0.3,1.4-2,1.5-2.5c0.6-1.7,0.9-3.2-0.2-4.8c-0.7-1.1-0.9-2.3-1.5-3.3c-0.8-1.3-2.4-1.7-2.3-3.5c-0.4,0.4-0.8,0.9-1.2,1.3		c-1.4-2.6-2.8-0.2-4.7-1.3c-1.1-0.6-0.4-1.8,0.1-2.5s2.2,0.1,2.8,0.1c-1-0.6-1.6-1.9-2.7-2.2c-0.8-0.2-1.9-0.1-2.4-0.9		c-0.8-1.2-1.2-5.9,1.1-4.5c-0.6-1.7-1.7-3.7,0.4-3.9c-1.7-2.3-4-4.2-4.6-7.1C1212.7,686.7,1211.6,682.8,1212.7,681.8"></path>
		<path id="path2556_1_" class="st0" d="M1326.4,640.7c0.1-0.3,0.1-0.6,0.2-0.9c1.4,0.2,2.6,0.8,3.8,1.4		C1329,641.5,1327.6,641.2,1326.4,640.7"></path>
		<path id="path2558_1_" class="st0" d="M1332.7,630.8c1.6-0.2,3.6-0.5,3.2,1.8C1334.3,632.9,1333.6,631.6,1332.7,630.8"></path>
		<path id="path2564_1_" class="st0" d="M1558,788.4c0.2,1.1,0.6,2,1.5,2.7c-0.4-0.6,0-4.4,0.2-5.2c0.6-2.2-1.6-1-1.1-2.9		c1.8,0.9,2.8-2,3.4-3c1.2-1.8,3.1,2,3.1,3c0.1,2.5,0.1,5.3,0.1,7.8c0.1,4-3.1,2.2-5.2,0.7C1562.8,794.6,1552.9,788.1,1558,788.4"></path>
		<path id="path2566_1_" class="st0" d="M1561.3,792.4c0.6,0.4,2.4,2.5,1.4,3.1C1560.9,796.3,1559.4,792.9,1561.3,792.4"></path>
		<rect x="1372.1" y="729.3" class="st1 countryMark" width="1" height="1"></rect>
		<text x="1372" y="759" dy=".35em" class="countryName" text-anchor="middle">Indonesia</text>
		<text x="1372" y="759" dy=".35em" class="countryNbr" text-anchor="middle">0</text>
	</g>
	<g class="countryGroup" id="philippines">
		<path id="path5902_1_" class="st0" d="M1432.5,500.9c0.3,0.3,0.6,0.3,0.8-0.1C1433,500.8,1432.8,500.8,1432.5,500.9"></path>
		<path id="path5800_1_" class="st0" d="M1323.7,574.6c0.9-1.4,1.1-3-0.3-4.1C1322.8,571.9,1322.9,573.4,1323.7,574.6"></path>
		<path id="path5806_1_" class="st0" d="M1344.5,587.5c0.3-1.4-0.2-1.7-1.5-0.9C1343.5,586.9,1344,587.2,1344.5,587.5"></path>
		<path id="path5832_1_" class="st0" d="M1362.3,617.2c0.8-0.5,5.7-3,5.5-3.6c-0.7-2.1-2.1-0.1-3.3,0.6		C1363.1,615.2,1360.9,615.3,1362.3,617.2"></path>
		<path id="path5838_1_" class="st0" d="M1371.9,596.7c-0.3,0.7-0.3,1.4,0,2.1C1372.6,598,1372.6,597.4,1371.9,596.7"></path>
		<path id="path5840_1_" class="st0" d="M1382,604.7c3.6-1.8-1.8-3.5-3.5-3.2c-1.9,0.3-1.8,2.7-1.3,2.4		C1378.4,603.4,1381.6,603.1,1382,604.7"></path>
		<path id="path5858_1_" class="st0" d="M1390,594c0.2,1.6,1.6,2.4,3.1,1.8c1.5-0.7,1.5-2.3,2.6-3.4c-1.3,0.1-2.1-0.9-3.3-1.2		c-1.2-0.3-2.3,1.3-3.4,1.5C1389.2,593.2,1389.6,593.6,1390,594"></path>
		<path id="path5860_1_" class="st0" d="M1388.5,601.4c0.3,1,0.9,1.3,1.9,0.9C1389.8,601.8,1389.2,601.5,1388.5,601.4"></path>
		<path id="path5874_1_" class="st0" d="M1403.2,582.7C1408.1,580.8,1399.6,579.6,1403.2,582.7"></path>
		<path id="path5882_1_" class="st0" d="M1413.3,554.7c2.2-0.1,1.4-2.1,0.6-3.2C1412.6,552.1,1411.7,553.9,1413.3,554.7"></path>
		<path id="path5888_1_" class="st0" d="M1415.5,547.7c1.2-0.1,1.7-0.5,1.4-1.3C1415.9,546.3,1415.5,546.8,1415.5,547.7"></path>
		<path id="path5892_1_" class="st0" d="M1418,536.9c0.4-0.4,0.7-0.9,1.1-1.3C1417.9,535.6,1418.1,536,1418,536.9"></path>
		<path id="path5900_1_" class="st0" d="M1429.5,554.9c0.7-1.3-0.3-3.4-1.9-2.1C1427.8,553.8,1428.5,554.6,1429.5,554.9"></path>
		<path id="path5908_1_" class="st0" d="M1437.1,612c0.4,0.2,0.8,0.3,1.3,0.1C1438,611.8,1437.5,611.7,1437.1,612"></path>
		<path id="path5910_1_" class="st0" d="M1443.2,588.7c0.5-1.4,0.2-2.8,0-4.1C1441,585.1,1442.8,587.3,1443.2,588.7"></path>
		<path id="path5802_1_" class="st0" d="M1326.9,562.5c-0.8,1.2-0.6,2.7-1,4c3.8-4.3,8.9-5.8,12.3-10.7c1.3-1.8,11.5-8.2,8.2-11.2		c2.1,0.5,0.7-0.9,0.9-2.2c0.2-1.5,2.8-1.8,3.8-1.9c1.9-0.2,2.3-1,2.7-2.7c0.6-2.4,2.3-1.8,3.9-2.8c3.4-2.1,1.3-4.2,0.1-6.6		c-1.3-2.9,1.7-6.9-0.5-9.4c-1.7,1.4-0.3,6.6-2.4,4.5c0.5,1.1,1.6,4.1,1.6,5.3c-1.3-0.7-2.7-1.5-3-3.1c-0.2,1.6,0.5,2.9,0.9,4.4		c0.3,1.5-1.9,6.1-2.5,2.9c-0.2,1-0.8,1.3-1.7,1.6c-0.7,0.2-0.5,2.2-0.7,2.7c-0.3,0.6-1.5-0.2-1.8,0.4c-0.5,0.9,0.7,1.5-0.2,2.6		c-0.2-3-1.7,0.5-2.2,1.3c-0.8,1.4-1.6,2.7-2.8,3.9c-1.8,1.8-2.8,4.4-4.9,6c-0.8,0.6-1.7,0.3-2.5,0.9c-0.9,0.7-1,1.8-2,2.4		C1330.5,556.3,1328.1,559.7,1326.9,562.5"></path>
		<path id="path5812_1_" class="st0" d="M1361.8,519.3c0.5-1.4,0.1-1.6-1.3-0.8C1360.9,518.8,1361.4,519,1361.8,519.3"></path>
		<path id="path5814_1_" class="st0" d="M1364.1,505.6c-0.4-0.4-0.7-0.7-1.2-1c-2.7,4.3,2.9,5,5.8,5c0.2-0.8-0.2-1.9-0.9-2.3		C1366.5,506.6,1365.6,506.9,1364.1,505.6"></path>
		<path id="path5816_1_" class="st0" d="M1365.5,481.2c0.3,1.2,1.5,2,2.5,2.7C1368.3,482.3,1367,481.3,1365.5,481.2"></path>
		<path id="path5818_1_" class="st0" d="M1364.1,510.8c-0.6,0.1-1.2,0.3-1.7,0.4c0.1,1.6,2.1,1.7,1.7,3.5		C1365.4,513.6,1364.4,511.8,1364.1,510.8"></path>
		<path id="path5820_1_" class="st0" d="M1364,532.1c0.1-2.2-3.1-0.2-3.2,1.3C1362.4,534.1,1362.4,531.9,1364,532.1"></path>
		<path id="path5824_1_" class="st0" d="M1368.5,487.1c0.2,0.7,2.7,3,3.4,3.6c2.7,2.3,1.6,5.2,3.5,7.6c0.8,1.1,5.9,12.4,8,5.8		c0.4-1.4,1.4-2.6,1.8-4s-0.8-2.6-0.6-4c0.3-3.3-1.1-5.4-3.1-7.6C1379.9,486.6,1370.6,484.9,1368.5,487.1"></path>
		<path id="path5828_1_" class="st0" d="M1367.8,512.7c0.1-0.9,0-1.8-0.1-2.7C1367.1,511,1367.1,511.9,1367.8,512.7"></path>
		<path id="path5808_1_" class="st0" d="M1361.6,445.8c-1,2.8,1.4,2.5,1.5,4.1c0.1,2.5-0.1,5.7,0.8,7.8c0.9,2.1,1.3,3.9,1.4,6.3		c0,1.4,1.9,4.6,2,1.3c2.3,0.9,0.3,5.6,3,6.4c4,1.2,1.4-4,1.7-5.8c1,0.4,9.2,3.2,5.6,5.5c-1.4,0.9-2.7,2-4,3c-2.1,1.7-0.6,5-0.7,7.1		c1.1-0.1,1.6-0.8,1.3-1.8c2.3,0,3.2,1.3,2.5,3.6c1.1-2.7,2.5-0.3,1.8,1c1.4-0.2,3.2,0.6,4.5-0.5c1.1-0.9,1.5-2.4,2.7-3.2		c0.4-0.2,2.5-1.7,2.9-1.4c1.5,1.3,3.5,1.9,4.8,3.4c1.7,1.9,5.1,4.4,5.3,7.2c0.1,0.9,1.5,2.3,2.1,0.7c0.1-0.9,0-1.7-0.4-2.5		c-0.1-0.4-1.7-3-0.7-2.7c-1.9-1.3-1-4.1-2.2-5.8c2.9-0.4,5,2.9,6.1,4.8c1.5,2.6,4.6,2.7,5.7,5.9c0.3,0.8-0.8,2.5,0.4,2.7		c1.3,0.3,2.3,1.2,3.5,1.8c0.9,0.5,1.6,1.8,2.8,1.2c0.9-0.4,2.2-1.7,3.2-1.4c-0.4,1.6-3.4,2.3-2.3,4.1c0.2,0.3,2.2,3.8,3.1,2.1		c1.3-2.6,1.3-11.8-4.2-8.4c-0.4-1.1,0.2-1.8,0.1-2.9c-0.1-1.3-1.8-3.3-2.9-3.9c-2.8-1.8,3.9-3.5,5.5-2.6c0-1.9-3-2.7-4.6-2.8		c-2.6-0.2-2.8-2.5-4.9-2.9c-0.8,1.8,2.2,4.4-0.7,5.4c-2.2,0.7-2.1-4.2-2.8-5.7c-1.4-3.1-8.9-5.9-9.5-0.1c-0.2-0.5-0.5-1-0.8-1.5		c-2,1.6,1.5,2.6,0.3,3.7c-2,1.9-5.1-0.7-6.1-1.9c-1-1.1-4.6-9.2-1.1-9.4c-2.9-2.2-5.4-8.6-3.4-12.2c1.3-2.5,0.4-4.8,1.6-6.9		c1.5-2.7,5.2-2.9,7.3-4.9c-0.3,0.7-0.6,1.5-1,2.2c1.8-1.8,1.6-3.8,2.6-5.9c1.6-3.2,3.5-6.6,3.4-10c-1.9,0.8-0.8-1.6-1.2-2.4		c-1.3-2.3-3.2-2.3-3.7-5.5c-0.6-3.2-0.1-5.7,1.7-8.7c0.9-1.6-0.5-5.9-2.3-3.6c-0.7,0.9-1.1,2.9-2.6,2.6c-0.9-0.2-2.8-1.2-3.8-0.2		c-0.3-1.1-1.3-1.8-2.2-2.4c-1.8-1.2-4.1-3-6.6-2.3c-1.1,0.3-2.1-0.2-3.1-0.3c-0.9-0.1-0.4,1.3-1.3,1.3c-2.5,0-1.1,1.4-1.4,2.8		c-0.5,2.6-1.7,5.8-2.5,8.5c-1.4,4.8,1.7,9.1,0,14.2c-1.4,4.2-0.1,7.3-0.1,11.2c0,4.8-6.5-1.6-6.7-3.7		C1361.3,442.6,1361.2,444.4,1361.6,445.8"></path>
		<path id="path5826_1_" class="st0" d="M1382.6,395.9c0.4,0.9,1.2,1.4,2.2,1.7C1385.5,396.1,1384,395.1,1382.6,395.9"></path>
		<path id="path5830_1_" class="st0" d="M1382.2,403.9c0.5,0,1-0.1,1.5-0.1C1383,403.4,1382.7,403.2,1382.2,403.9"></path>
		<path id="path5834_1_" class="st0" d="M1390.9,380.7c0.5-0.6,0.9-1.3,1.2-2.1C1391.1,379.1,1390.8,379.8,1390.9,380.7"></path>
		<path id="path5836_1_" class="st0" d="M1389.3,404.3c1-0.6,1.6-1.7,1.4-2.7C1389.8,402.3,1389.3,403.2,1389.3,404.3"></path>
		<path id="path5842_1_" class="st0" d="M1389.4,463.3c0.2,1.6,0.6,4.6,2.3,5.3C1392.7,466.7,1393,460.5,1389.4,463.3"></path>
		<path id="path5844_1_" class="st0" d="M1394,478.8c-0.2-1.6-2.1-2.7-3.5-3.1C1391.3,477.1,1392.8,477.9,1394,478.8"></path>
		<path id="path5846_1_" class="st0" d="M1389,487.4c-0.4,2.9,3.8,5.1,4.5,0.9C1393.8,486.2,1390,485.1,1389,487.4"></path>
		<path id="path5848_1_" class="st0" d="M1395.2,467.7c0.6-1.2,0.2-1.6-1.2-1C1394.4,467,1394.8,467.3,1395.2,467.7"></path>
		<path id="path5850_1_" class="st0" d="M1389.5,513.2c4.1,0.7,2.8,4,2.4,7.2c-0.3,2.3-0.1,4-1,6.3c-0.9,2.4,0.3,4.7-0.8,7.1		c2.4,0.5,4.3-3.6,6.9-3.6c1.7,0,5.2-2.5,4.8-4.2c-0.3-1.5,5.2-2,4.7-4.1c-0.7-2.8,1.7-6.7-3.1-3.4c1.2-1.2-0.3-2.8-1.6-2.5		c-1.3,0.3-2.2,1.8-3.2,0.7c-1.1-1.3-1.8-2.7-3.3-3.5c-1.5-0.7-3.4-1-4.3-2.5C1390.3,511.4,1389.8,512.2,1389.5,513.2"></path>
		<path id="path5852_1_" class="st0" d="M1391.7,501.9c-0.4,2.3-1.6,4.3,0,6.3c0.6-2.6,1.1-5.3,1.9-7.9		C1394.1,498.9,1390.7,499.8,1391.7,501.9"></path>
		<path id="path5854_1_" class="st0" d="M1396.1,468.3c0.4,0,0.9-0.1,1.3-0.1C1397,468.1,1396.6,468.2,1396.1,468.3"></path>
		<path id="path5856_1_" class="st0" d="M1395.2,501.9c1.1,0.2,1-0.3-0.3-1.3C1395.1,501.1,1395.2,501.5,1395.2,501.9"></path>
		<path id="path5862_1_" class="st0" d="M1390.6,584.6c-0.9,3.6,4,5.2,4.7,0.9c0.2-1.5,1.2-5.8,2.4-6.3c1-0.4,2-6,4.1-4.4		c1.5,1.2,0.7,3.8,1.8,5.1c0.5-2.3,1.2-1.2,1.8,0c0.6-1.4,0.3-3.3,2.1-4c0.7,0.9,0.5,2-0.4,2.8c1.8,0.1,2.8,2.3,4.5,1.9		c-0.5-0.8-1.1-1.8-1-2.8c0.1-0.6,1.3-0.5,1.5-1c0.5-1.4-1.1-1.1,0.8-2.4c1.2-0.8,2.2,0.6,3,1.2c2.7,1.8,5.3,2.3,6,6		c0.4,2-2.5,4-2.9,6.1s0.6,5.2,1,7.4c0.5,3.3,3.3,5.3,6,6.8c1.3,0.7,5.7,3.7,7.2,2.4c1.2-1,0.7-3.3,2.9-3.2c0.2,0-1.1,9.9,2.1,7.8		c2.2-1.5,4.4-6.5,4.2-8.9c-0.2-3.4-2.8-4.9-3.9-7.6c-0.7-1.7,4-11,5.4-10.3c1.1,0.5,3.2,5.8,3.6,7.1s0,2.6,0.1,3.9		c0,1.9,1.5,3.2,1.7,5c0.2-3,1.8-6.9-0.3-9.4c1.1-0.5,2,0.1,2.4,1.2c-1.8-1.7,1.1-3.4,2.2-4.7c2-2.5,0.9-6,0.6-8.7		c-0.3-2.2-3.1-2.2-1.8-4.5c0.7-1.4,1-4.9-1.5-3.8c4.4-3.5-3.1-4.7-2.9-6.6c0.1-1.1,2.3-1.6,2.8-2.7c0.9-1.9-1.2-2.7-1.7-4.2		c-0.2-0.7,0.8-4-0.6-3.4c-1.7,0.8-2,0.2-2.8-1c-1-1.5,0.2-2.4-2.1-3.1c-2.5-0.8-2.8-3-4.9-4c-1.5,2.9,0.6,6.7,1.3,9.5		c0.2,0.6,0.9,2.9-0.2,3.3c-1.5,0.4-3.6,0.1-4.1-1.5c-1.5,3.8-0.2,4.1-3.6,1.6c-3.2-2.3-0.9,6.8-3.7,7.2c-1.8,0.2-2-1.9-3.7-1.2		c-1.8,0.8-1.5,3.9-2.1,5.4c-0.8,1.8-3.3,1-4.6,2c-0.8,0.6-2.1,2-3.2,2.1c-1.1,0,1.4-1.6,1.2-1.5c1.4-0.9,1.7-1.4,1.5-3.1		c-0.2-1.3-1.6-7.6-4-4.6c-0.3-1.1-0.8-2.4-2.2-2.3c0.5,3.5-3.8,2.2-5,4.1c-1.4,2.3-0.5,4.4-3.4,5.3c-2.9,0.9-7.1,0.1-8.7,3.7		c-0.7,1.6-0.4,3.4-0.7,5C1392.9,580.6,1391.6,582.7,1390.6,584.6"></path>
		<path id="path5864_1_" class="st0" d="M1398.7,501.9c-0.5,0.3-1,0.6-1.4,1c1,0.9,2.1,1.7,3,2.7		C1401.7,504,1400.8,501.9,1398.7,501.9"></path>
		<path id="path5866_1_" class="st0" d="M1399.7,549.4c1.2,0.9,2.9,0.9,3.9,2.1c0.8,1,0.2,2.6,1.2,3.5c1.3,1.3,3.3-0.2,4.1-1.5		c1.5-2.3-0.9-3.9-1.4-6c-0.9-3.8,0.9-9.3,2.3-12.9c1.2-2.8,4.5-6.5,0.9-8.6c-1.2-0.7-2.8-0.9-4.3-0.3c-2.4,1-1.7,3.1-2.5,5		c-0.5,1.2-1.8,1.6-1.5,3.1c0.4,1.6,1,3.4,0.2,5.1c-1.1,2.6-5.8,0.9-5.9,3.8C1396.7,545.1,1398.4,547.5,1399.7,549.4"></path>
		<path id="path5868_1_" class="st0" d="M1398.7,534.3c1.2-0.5,4.3-4.1,1.9-4.7C1398.8,529.2,1397.9,533.4,1398.7,534.3"></path>
		<path id="path5870_1_" class="st0" d="M1410.2,499c-1.2-2.4-2.6-5.7-5.2-6.8C1403.4,494.4,1409.3,497.5,1410.2,499"></path>
		<path id="path5872_1_" class="st0" d="M1407.6,509.6c-0.1,0.5-0.2,0.9-0.3,1.4c2-1.2,3.8-6.1,5.8-3.6c0.8,1,1.7,2,2.3,3.1		c0.9,1.4,2.9,1.5,3.8,2.9c2.4-3.8-2.6-6.2-4.2-8.3c-0.7-0.9-1.8-2-2.7-2.7c-0.5-0.4-3.4-1.9-4.1-1.9c0.3,1.2-0.4,4.5,0.1,5.2		C1409.6,507.6,1408,507.7,1407.6,509.6"></path>
		<path id="path5876_1_" class="st0" d="M1414.3,501.9c0.4,0.9,0.9,1.8,1.7,2.4c-0.1-1.7-0.3-3.9-2-4.8		C1413.5,500.5,1413.6,501.3,1414.3,501.9"></path>
		<path id="path5878_1_" class="st0" d="M1410.7,540.6c0,2.7-1,5.3-1.4,8c3.6,1,3.4-7.8,5-9.5c2-2.1,4.1-3.9,4.7-6.9		c0.8-3.6,0-7.1,0.5-10.6c-1.8,0.4-2.9,5.9-3.4,7.3C1414.7,533,1411.8,536.5,1410.7,540.6"></path>
		<path id="path5880_1_" class="st0" d="M1419.1,490.8c0.3-0.9-0.1-1.1-1.2-0.5C1418.3,490.5,1418.7,490.7,1419.1,490.8"></path>
		<path id="path5884_1_" class="st0" d="M1421.7,486.2c3.6-2.3,3.8-7.4-0.4-8.2C1419.6,480.6,1420,484.4,1421.7,486.2"></path>
		<path id="path5886_1_" class="st0" d="M1421.7,491.6c-0.4-0.3-0.8-0.4-1.4-0.3C1420.8,491.4,1421.3,491.5,1421.7,491.6"></path>
		<path id="path5890_1_" class="st0" d="M1416.9,545c-0.6,5,8.7-0.7,9.9-0.3c-0.5-2.6-0.3-7.7-5-6.4		C1420,538.8,1414.7,543.6,1416.9,545"></path>
		<path id="path5894_1_" class="st0" d="M1422.7,501.9c0.7,2.7,1.7,5.1,3.8,6.9c1.2,1,4.7,5.2,6.4,4.5c-0.7,1.3-0.8,3-2.5,3.5		c0.7,0.6,1.3,1.4,1.7,2.3c-1.2-1.5-2.2,0.4-3.4,1.1c-1.9,1-4.3-1.8-4.9-3.1c-1.5,1.6,0.2,9.2,2,10c0-3.5,3.6,1,3.5,2.8		c-0.2,4.5-1.3,7.9,3.4,10.1c-0.1-1.4-0.7-2.6-0.7-4c0.7,0.8,3.3,0.9,3.7-0.5c0.2-0.8-1.4-4.5-1.8-5.3c-0.9-1.8-1.3-1.6-1.2-4.1		c0.1-1.6,0.7-4.1-0.6-5.3c1.1-0.3,3.8,2.7,3.9,2.6c1.3-1.4,5.6,0.4,6.7,1.1c-0.9-1.1-1.4-2.7-2.9-3.2c2.2-1.5-1.4-6.1-1.4-8		c0-1.9,1.1-3.7,0.2-5.3c-0.6-1.1,2-0.7,0-2c-1-0.7-2.5-0.2-2.2-1.9c0.4-2.3-1.6-2.3-3.2-2.7c-1.7-0.4-2.3-0.4-4.2,0.2		C1426.9,502.3,1424.8,500.4,1422.7,501.9"></path>
		<path id="path5896_1_" class="st0" d="M1425.5,518c2.2,0.3,1.1-5-1.8-3.3C1424.2,515.8,1424.3,517.3,1425.5,518"></path>
		<path id="path5904_1_" class="st0" d="M1435.1,540.6c0.5,0.4,0.9,0.8,1.4,1.3c-0.2-1.2-0.6-3.3-2.4-2.7		C1434.3,539.7,1434.7,540.2,1435.1,540.6"></path>
		<path id="path5906_1_" class="st0" d="M1440.3,540.6c1,0.7,1,1.8,0.1,2.7c1.9,0.3,1.6-2.5,1.5-3.5c-0.2-1.1-0.8-2.1-0.9-3.2		c-0.1-1,0.6-1.8,0.3-2.8c-2.6,1.1-0.7,3.2-2.3,4.9C1440,538.9,1440.6,539.5,1440.3,540.6"></path>
		<path id="path5912_1_" class="st0" d="M1445.4,547.5c0.9-0.9,0.4-2.1-0.5-2.7C1444.7,545.7,1444.9,546.6,1445.4,547.5"></path>
		<path id="path5914_1_" class="st0" d="M1446.6,540.6c-0.7,0.9-1.5,4.5,0.6,4C1449.3,544.2,1448,540.9,1446.6,540.6"></path>
		<path id="path5920_1_" class="st0" d="M1423,531.6c0-0.5-0.1-0.9-0.1-1.4C1424.3,530.4,1424.4,530.9,1423,531.6"></path>
		<path id="path5924_1_" class="st0" d="M1432.1,519.1c0.2,0.5,0.2,1.1,0.1,1.7C1432,520.3,1432,519.7,1432.1,519.1"></path>
		<path id="path5936_1_" class="st0" d="M1413.3,524.7C1412.9,519.7,1419.5,522.2,1413.3,524.7"></path>
		<rect x="1389.5" y="513.2" class="st1 countryMark" width="1" height="1"></rect>
		<text x="1339" y="543" dy=".35em" class="countryName" text-anchor="middle">Philippines</text>
		<text x="1339" y="543" dy=".35em" class="countryNbr" text-anchor="middle">0</text>
	</g>
	<g class="countryGroup" id="sri_lanka">
		<path id="path6496_1_" class="st0" d="M814.2,554.5c0.4,0.9,1.8,1.5,2.5,2.1C816.5,555.4,815.5,554.5,814.2,554.5"></path>
		<path id="path6498_1_" class="st0" d="M815.3,577.7c-0.2,5.7,1,29.2,11.7,25.7c4.9-1.6,12.2-4.9,14.9-9.5c2.3-3.8,3.5-10.5,1-14.2		c0,0.7-2.2-3.9-2.8-4.5c3.2,2.4-0.7-2.6-1.1-3.4c-1.5-2.5-1.4-5.4-2.6-8c-1,0.8-2.1,0.5-2.7-0.5c3.2,0.3-3.7-8.7-4-10		c-0.4-1.4-8.1-10.7-9.7-9.3c1.7,0.4,2.5,2,3.6,3.1c-1.7-1-4.8-5.5-7-2.7c0.9,1.5,2.7,1.6,3.9,2.7c0.3-1.6,4.4,1,5.2,2.2		c-0.8-0.6-5-1.6-6.1-1.5c0.8,1.2,0,1.2-0.7,2.1c-0.9,1.2,0.9,3-0.3,4.9c-2.8,4.3-2.6,12-3,17.1c-2-0.6-1-3.3-1-4.8		C812.5,570.1,815.1,574.5,815.3,577.7"></path>
		<path id="path6500_1_" class="st0" d="M816.4,545.4c0.2,0.9,0.1,1.2,1.3,1C817.2,546.1,816.8,545.7,816.4,545.4"></path>
		<rect x="829" y="581.9" class="st1 countryMark" width="1" height="1"></rect>
	</g>
</svg>